{
  "hash": "57bfc28b1ceb3c4c4f8c556fe4b36007",
  "result": {
    "markdown": "---\ntitle: \"El Balance hidrometeorológico\"\nsubtitle: \"Un introducción a escala de cuenca\"\nauthor: Gabriel Gaona\ndate: 2022-06-15\nformat:\n  revealjs:\n    theme: tema_ikiam.scss\ntoc: true\nlang: es-Ec\nbibliography: references.bib\n---\n\n## Conceptos básicos\n\n::: panel-tabset\n### Ciclo hidrológico\n\n::: columns\n::: {.column width=\"60%\"}\n![](img/water_cicle.png){fig-align=\"center\"} [Imagen tomada de @singh2021]{style=\"font-size:1.2rem\"}\n:::\n\n::: {.column width=\"40%\"}\n::: callout-tip\n## Definición\n\nEl ciclo hidrológico, también conocido como el *ciclo del agua*, es sistema de reciclado normal del agua en la tierra [@singh2021] .\n:::\n:::\n:::\n\n### Cuenca hidrográfica\n\n::: columns\n::: {.column width=\"60%\"}\n![](https://amazonwaters.org/wp-content/uploads/2016/05/bl2basin-1.jpg){fig-align=\"center\"}\n\n::: {.p style=\"font-size: 1.2rem; line-height: normal;\"}\nIzq) Mapa de cuencas hidrográficas [@singh2021]; Der) Fotografía de afluente del Río Napo [@zapata-ríos]\n:::\n:::\n\n::: {.column width=\"40%\"}\n::: callout-tip\n## Definición\n\nUna cuenca hidrográfica es la delimitación topográfica del flujo del agua.\n:::\n\n![](https://amazonwaters.org/wp-content/uploads/2015/10/RioHollin_.jpg)\n:::\n:::\n:::\n\n# El Balance del agua en una Cuenca Hidrográfica\n\n## Simplificando el sistema\n\n::: columns\n\n::: {.column width=\"20%\"}\n```{mermaid}\nflowchart TD\n    A[Entradas] --> B[(Processos)]\n    B --> C[salidas]\n```\n:::\n\n::: {.column width=\"55%\"}\n\n$$\n\\int {I} \\delta t= \\int {S} \\delta t + \\int {O} \\delta t\n$$\n\n$$\n\\Delta I = \\Delta S + \\Delta O\n$$\n\n$$\nP =  S  + Q\n$$\n\nDonde: $P$ es la precipitación, $S$ es el almacenamiento y $Q$ el caudal\n\n:::\n\n:::\n\n## Un sistema con varios procesos\n\n# Referencias\n\n",
    "supporting": [
      "balance_hidrologico_files/figure-revealjs"
    ],
    "filters": [],
    "includes": {}
  }
}