<?xml version="1.0" encoding="UTF-8" standalone="no"?>
<!-- Created with Inkscape (http://www.inkscape.org/) -->

<svg
   width="870"
   height="573.89984"
   id="svg2"
   version="1.1"
   inkscape:version="1.2 (1:1.2+202206011327+fc4e4096c5)"
   sodipodi:docname="modelling_scales.svg"
   xml:space="preserve"
   xmlns:inkscape="http://www.inkscape.org/namespaces/inkscape"
   xmlns:sodipodi="http://sodipodi.sourceforge.net/DTD/sodipodi-0.dtd"
   xmlns:xlink="http://www.w3.org/1999/xlink"
   xmlns="http://www.w3.org/2000/svg"
   xmlns:svg="http://www.w3.org/2000/svg"
   xmlns:rdf="http://www.w3.org/1999/02/22-rdf-syntax-ns#"
   xmlns:cc="http://creativecommons.org/ns#"
   xmlns:dc="http://purl.org/dc/elements/1.1/"><defs
     id="defs4"><marker
       style="overflow:visible"
       id="Arrow5"
       refX="0"
       refY="0"
       orient="auto-start-reverse"
       inkscape:stockid="Arrow5"
       markerWidth="5.8874259"
       markerHeight="6.6094756"
       viewBox="0 0 5.8874262 6.6094758"
       inkscape:isstock="true"
       inkscape:collect="always"
       preserveAspectRatio="xMidYMid"><path
         transform="scale(0.5)"
         style="fill:context-stroke;fill-rule:evenodd;stroke:context-stroke;stroke-width:1pt"
         d="m 6,0 c -3,1 -7,3 -9,5 0,0 0,-4 2,-5 -2,-1 -2,-5 -2,-5 2,2 6,4 9,5 z"
         id="path8893" /></marker><linearGradient
       id="linearGradient3843"><stop
         style="stop-color:#f1f1f1;stop-opacity:1;"
         offset="0"
         id="stop3845" /><stop
         style="stop-color:#ffffff;stop-opacity:1;"
         offset="1"
         id="stop3847" /></linearGradient><linearGradient
       inkscape:collect="always"
       id="linearGradient3823"><stop
         style="stop-color:#828284;stop-opacity:1;"
         offset="0"
         id="stop3825" /><stop
         style="stop-color:#828284;stop-opacity:0;"
         offset="1"
         id="stop3827" /></linearGradient><linearGradient
       id="linearGradient3777"><stop
         style="stop-color:#0098ff;stop-opacity:0;"
         offset="0"
         id="stop3779" /><stop
         id="stop3781"
         offset="0.23931459"
         style="stop-color:#7fcbff;stop-opacity:0.49803922;" /><stop
         style="stop-color:#ffffff;stop-opacity:0;"
         offset="1"
         id="stop3783" /></linearGradient><linearGradient
       id="linearGradient3769"><stop
         style="stop-color:#0098ff;stop-opacity:0;"
         offset="0"
         id="stop3771" /><stop
         id="stop3773"
         offset="0.23605601"
         style="stop-color:#7fcbff;stop-opacity:0.49803922;" /><stop
         style="stop-color:#ffffff;stop-opacity:0;"
         offset="1"
         id="stop3775" /></linearGradient><linearGradient
       id="linearGradient3751"><stop
         id="stop3753"
         offset="0"
         style="stop-color:#0098ff;stop-opacity:0;" /><stop
         style="stop-color:#7fcbff;stop-opacity:0.49803922;"
         offset="0.5"
         id="stop3767" /><stop
         id="stop3755"
         offset="1"
         style="stop-color:#ffffff;stop-opacity:0;" /></linearGradient><linearGradient
       id="linearGradient4982"><stop
         style="stop-color:#89cbf8;stop-opacity:1;"
         offset="0"
         id="stop4984" /><stop
         style="stop-color:#ffffff;stop-opacity:1;"
         offset="1"
         id="stop4986" /></linearGradient><linearGradient
       id="linearGradient4949"><stop
         style="stop-color:#fffa33;stop-opacity:1;"
         offset="0"
         id="stop4951" /><stop
         style="stop-color:#ffffff;stop-opacity:0;"
         offset="1"
         id="stop4953" /></linearGradient><linearGradient
       id="linearGradient4899"><stop
         style="stop-color:#ffffff;stop-opacity:1;"
         offset="0"
         id="stop4901" /><stop
         style="stop-color:#ffffff;stop-opacity:0;"
         offset="1"
         id="stop4903" /></linearGradient><marker
       inkscape:stockid="Arrow1Mend"
       orient="auto"
       refY="0"
       refX="0"
       id="Arrow1Mend"
       style="overflow:visible"
       viewBox="0 0 8.886927 5.078244"
       markerWidth="8.8869267"
       markerHeight="5.0782437"
       preserveAspectRatio="xMidYMid"><path
         id="path3951"
         d="M 0,0 5,-5 -12.5,0 5,5 Z"
         style="fill-rule:evenodd;stroke:#000000;stroke-width:1pt;marker-start:none"
         transform="matrix(-0.4,0,0,-0.4,-4,0)" /></marker><marker
       inkscape:stockid="TriangleOutL"
       orient="auto"
       refY="0"
       refX="0"
       id="TriangleOutL"
       style="overflow:visible"><path
         id="path4085"
         d="M 5.77,0 -2.88,5 V -5 Z"
         style="fill-rule:evenodd;stroke:#000000;stroke-width:1pt;marker-start:none"
         transform="scale(0.8)" /></marker><inkscape:perspective
       sodipodi:type="inkscape:persp3d"
       inkscape:vp_x="0 : 721.08093 : 1"
       inkscape:vp_y="0 : 1000 : 0"
       inkscape:vp_z="744.09448 : 721.08093 : 1"
       inkscape:persp3d-origin="372.04724 : 545.68723 : 1"
       id="perspective10" /><inkscape:perspective
       id="perspective2824"
       inkscape:persp3d-origin="0.5 : 195.23317 : 1"
       inkscape:vp_z="1 : 195.39984 : 1"
       inkscape:vp_y="0 : 1000 : 0"
       inkscape:vp_x="0 : 195.39984 : 1"
       sodipodi:type="inkscape:persp3d" /><linearGradient
       inkscape:collect="always"
       xlink:href="#linearGradient4899"
       id="linearGradient4909"
       x1="561.64288"
       y1="190.9352"
       x2="600.26263"
       y2="190.9352"
       gradientUnits="userSpaceOnUse" /><linearGradient
       inkscape:collect="always"
       xlink:href="#linearGradient3823"
       id="linearGradient3829"
       x1="651.60712"
       y1="194.08104"
       x2="638.03571"
       y2="212.92857"
       gradientUnits="userSpaceOnUse" /><inkscape:perspective
       id="perspective3786"
       inkscape:persp3d-origin="0.5 : 195.23317 : 1"
       inkscape:vp_z="1 : 195.39984 : 1"
       inkscape:vp_y="0 : 1000 : 0"
       inkscape:vp_x="0 : 195.39984 : 1"
       sodipodi:type="inkscape:persp3d" /><inkscape:perspective
       id="perspective3786-4"
       inkscape:persp3d-origin="0.5 : 195.23317 : 1"
       inkscape:vp_z="1 : 195.39984 : 1"
       inkscape:vp_y="0 : 1000 : 0"
       inkscape:vp_x="0 : 195.39984 : 1"
       sodipodi:type="inkscape:persp3d" /><inkscape:perspective
       id="perspective3786-8"
       inkscape:persp3d-origin="0.5 : 195.23317 : 1"
       inkscape:vp_z="1 : 195.39984 : 1"
       inkscape:vp_y="0 : 1000 : 0"
       inkscape:vp_x="0 : 195.39984 : 1"
       sodipodi:type="inkscape:persp3d" /><inkscape:perspective
       id="perspective3882"
       inkscape:persp3d-origin="0.5 : 195.23317 : 1"
       inkscape:vp_z="1 : 195.39984 : 1"
       inkscape:vp_y="0 : 1000 : 0"
       inkscape:vp_x="0 : 195.39984 : 1"
       sodipodi:type="inkscape:persp3d" /><inkscape:perspective
       id="perspective3882-0"
       inkscape:persp3d-origin="0.5 : 195.23317 : 1"
       inkscape:vp_z="1 : 195.39984 : 1"
       inkscape:vp_y="0 : 1000 : 0"
       inkscape:vp_x="0 : 195.39984 : 1"
       sodipodi:type="inkscape:persp3d" /><inkscape:perspective
       id="perspective3975"
       inkscape:persp3d-origin="0.5 : 195.23317 : 1"
       inkscape:vp_z="1 : 195.39984 : 1"
       inkscape:vp_y="0 : 1000 : 0"
       inkscape:vp_x="0 : 195.39984 : 1"
       sodipodi:type="inkscape:persp3d" /><inkscape:perspective
       id="perspective4010"
       inkscape:persp3d-origin="0.5 : 195.23317 : 1"
       inkscape:vp_z="1 : 195.39984 : 1"
       inkscape:vp_y="0 : 1000 : 0"
       inkscape:vp_x="0 : 195.39984 : 1"
       sodipodi:type="inkscape:persp3d" /><inkscape:perspective
       id="perspective4010-7"
       inkscape:persp3d-origin="0.5 : 195.23317 : 1"
       inkscape:vp_z="1 : 195.39984 : 1"
       inkscape:vp_y="0 : 1000 : 0"
       inkscape:vp_x="0 : 195.39984 : 1"
       sodipodi:type="inkscape:persp3d" /><inkscape:perspective
       id="perspective4010-0"
       inkscape:persp3d-origin="0.5 : 195.23317 : 1"
       inkscape:vp_z="1 : 195.39984 : 1"
       inkscape:vp_y="0 : 1000 : 0"
       inkscape:vp_x="0 : 195.39984 : 1"
       sodipodi:type="inkscape:persp3d" /><inkscape:perspective
       id="perspective4010-5"
       inkscape:persp3d-origin="0.5 : 195.23317 : 1"
       inkscape:vp_z="1 : 195.39984 : 1"
       inkscape:vp_y="0 : 1000 : 0"
       inkscape:vp_x="0 : 195.39984 : 1"
       sodipodi:type="inkscape:persp3d" /><inkscape:perspective
       id="perspective4010-3"
       inkscape:persp3d-origin="0.5 : 195.23317 : 1"
       inkscape:vp_z="1 : 195.39984 : 1"
       inkscape:vp_y="0 : 1000 : 0"
       inkscape:vp_x="0 : 195.39984 : 1"
       sodipodi:type="inkscape:persp3d" /><inkscape:perspective
       id="perspective2985"
       inkscape:persp3d-origin="0.5 : 195.23317 : 1"
       inkscape:vp_z="1 : 195.39984 : 1"
       inkscape:vp_y="0 : 1000 : 0"
       inkscape:vp_x="0 : 195.39984 : 1"
       sodipodi:type="inkscape:persp3d" /><inkscape:perspective
       id="perspective3814"
       inkscape:persp3d-origin="0.5 : 195.23317 : 1"
       inkscape:vp_z="1 : 195.39984 : 1"
       inkscape:vp_y="0 : 1000 : 0"
       inkscape:vp_x="0 : 195.39984 : 1"
       sodipodi:type="inkscape:persp3d" /><inkscape:perspective
       id="perspective3877"
       inkscape:persp3d-origin="0.5 : 195.23317 : 1"
       inkscape:vp_z="1 : 195.39984 : 1"
       inkscape:vp_y="0 : 1000 : 0"
       inkscape:vp_x="0 : 195.39984 : 1"
       sodipodi:type="inkscape:persp3d" /><inkscape:perspective
       id="perspective3928"
       inkscape:persp3d-origin="0.5 : 195.23317 : 1"
       inkscape:vp_z="1 : 195.39984 : 1"
       inkscape:vp_y="0 : 1000 : 0"
       inkscape:vp_x="0 : 195.39984 : 1"
       sodipodi:type="inkscape:persp3d" /><clipPath
       clipPathUnits="userSpaceOnUse"
       id="clipPath9966"><rect
         style="fill:none;stroke:#000000;stroke-width:0.5;stroke-linecap:round;stroke-linejoin:round;stroke-dasharray:none;stroke-dashoffset:27.384;paint-order:stroke fill markers"
         id="rect9968"
         width="284.61307"
         height="298.09564"
         x="-14.123077"
         y="-489.08783" /></clipPath><marker
       inkscape:stockid="Arrow1Mend"
       orient="auto"
       refY="0"
       refX="0"
       id="Arrow1Mend-0"
       style="overflow:visible"
       viewBox="0 0 8.886927 5.078244"
       markerWidth="8.8869267"
       markerHeight="5.0782442"
       preserveAspectRatio="xMidYMid"><path
         id="path3951-6"
         d="M 0,0 5,-5 -12.5,0 5,5 Z"
         style="fill-rule:evenodd;stroke:#000000;stroke-width:1pt;marker-start:none"
         transform="matrix(-0.4,0,0,-0.4,-4,0)" /></marker><marker
       inkscape:stockid="Arrow1Mend"
       orient="auto"
       refY="0"
       refX="0"
       id="Arrow1Mend-2"
       style="overflow:visible"
       viewBox="0 0 8.886927 5.078244"
       markerWidth="8.8869267"
       markerHeight="5.0782442"
       preserveAspectRatio="xMidYMid"><path
         id="path3951-0"
         d="M 0,0 5,-5 -12.5,0 5,5 Z"
         style="fill-rule:evenodd;stroke:#000000;stroke-width:1pt;marker-start:none"
         transform="matrix(-0.4,0,0,-0.4,-4,0)" /></marker><marker
       inkscape:stockid="Arrow1Mend"
       orient="auto"
       refY="0"
       refX="0"
       id="Arrow1Mend-1"
       style="overflow:visible"
       viewBox="0 0 8.886927 5.078244"
       markerWidth="8.8869267"
       markerHeight="5.0782442"
       preserveAspectRatio="xMidYMid"><path
         id="path3951-5"
         d="M 0,0 5,-5 -12.5,0 5,5 Z"
         style="fill-rule:evenodd;stroke:#000000;stroke-width:1pt;marker-start:none"
         transform="matrix(-0.4,0,0,-0.4,-4,0)" /></marker><marker
       inkscape:stockid="Arrow1Mend"
       orient="auto"
       refY="0"
       refX="0"
       id="Arrow1Mend-4"
       style="overflow:visible"
       viewBox="0 0 8.886927 5.078244"
       markerWidth="8.8869267"
       markerHeight="5.0782442"
       preserveAspectRatio="xMidYMid"><path
         id="path3951-7"
         d="M 0,0 5,-5 -12.5,0 5,5 Z"
         style="fill-rule:evenodd;stroke:#000000;stroke-width:1pt;marker-start:none"
         transform="matrix(-0.4,0,0,-0.4,-4,0)" /></marker><marker
       inkscape:stockid="Arrow1Mend"
       orient="auto"
       refY="0"
       refX="0"
       id="Arrow1Mend-5"
       style="overflow:visible"
       viewBox="0 0 8.886927 5.078244"
       markerWidth="8.8869267"
       markerHeight="5.0782442"
       preserveAspectRatio="xMidYMid"><path
         id="path3951-69"
         d="M 0,0 5,-5 -12.5,0 5,5 Z"
         style="fill-rule:evenodd;stroke:#000000;stroke-width:1pt;marker-start:none"
         transform="matrix(-0.4,0,0,-0.4,-4,0)" /></marker></defs><sodipodi:namedview
     id="base"
     pagecolor="#ffffff"
     bordercolor="#666666"
     borderopacity="1.0"
     inkscape:pageopacity="0.0"
     inkscape:pageshadow="2"
     inkscape:zoom="0.70710678"
     inkscape:cx="191.62594"
     inkscape:cy="353.55339"
     inkscape:document-units="px"
     inkscape:current-layer="layer2"
     showgrid="false"
     inkscape:window-width="1920"
     inkscape:window-height="1053"
     inkscape:window-x="0"
     inkscape:window-y="27"
     inkscape:window-maximized="1"
     inkscape:showpageshadow="0"
     inkscape:pagecheckerboard="0"
     inkscape:deskcolor="#d1d1d1" /><metadata
     id="metadata7"><rdf:RDF><cc:Work
         rdf:about=""><dc:format>image/svg+xml</dc:format><dc:type
           rdf:resource="http://purl.org/dc/dcmitype/StillImage" /></cc:Work></rdf:RDF></metadata><g
     inkscape:groupmode="layer"
     id="layer2"
     inkscape:label="Layer"
     transform="translate(-18.042237,491.05662)"><g
       id="g24525"
       transform="translate(186.07785)"><rect
         style="opacity:1;fill:#ffffff;fill-opacity:1;stroke:#333333;stroke-width:0.511251;stroke-linecap:round;stroke-linejoin:round;stroke-dasharray:none;stroke-dashoffset:27.384;paint-order:stroke fill markers"
         id="rect17607"
         width="534.33344"
         height="573.38861"
         x="-0.20233041"
         y="-490.80099"
         ry="5.6250653" /><g
         id="g24266"
         transform="translate(-6.9452599)"><path
           style="fill:none;stroke:#808080;stroke-width:1;stroke-linecap:butt;stroke-linejoin:miter;stroke-dasharray:none;stroke-opacity:1;marker-start:url(#Arrow5)"
           d="m 295.11549,-474.19077 3.3032,542.184802"
           id="path10261"
           sodipodi:nodetypes="cc" /><path
           style="fill:none;stroke:#808080;stroke-width:1;stroke-linecap:butt;stroke-linejoin:miter;stroke-dasharray:none;stroke-opacity:1;marker-start:url(#Arrow5)"
           d="m 505.38945,-173.91049 -449.741445,2.24551"
           id="path10263"
           sodipodi:nodetypes="cc" /><path
           style="fill:none;stroke:#808080;stroke-width:1;stroke-linecap:butt;stroke-linejoin:miter;stroke-dasharray:none;stroke-opacity:1"
           d="m 56.438642,-173.0126 v 7.62969"
           id="path11792" /><path
           style="fill:none;stroke:#808080;stroke-width:1;stroke-linecap:butt;stroke-linejoin:miter;stroke-dasharray:none;stroke-opacity:1"
           d="m 104.6767,-173.0126 v 7.62969"
           id="path11792-5" /><path
           style="fill:none;stroke:#808080;stroke-width:1;stroke-linecap:butt;stroke-linejoin:miter;stroke-dasharray:none;stroke-opacity:1"
           d="m 152.91476,-173.0126 v 7.62969"
           id="path11792-9" /><path
           style="fill:none;stroke:#808080;stroke-width:1;stroke-linecap:butt;stroke-linejoin:miter;stroke-dasharray:none;stroke-opacity:1"
           d="m 201.15283,-173.0126 v 7.62969"
           id="path11792-7" /><path
           style="fill:none;stroke:#808080;stroke-width:1;stroke-linecap:butt;stroke-linejoin:miter;stroke-dasharray:none;stroke-opacity:1"
           d="m 249.39089,-173.0126 v 7.62969"
           id="path11792-76" /><path
           style="fill:none;stroke:#808080;stroke-width:1;stroke-linecap:butt;stroke-linejoin:miter;stroke-dasharray:none;stroke-opacity:1"
           d="m 345.86701,-173.0126 v 7.62969"
           id="path11792-73" /><path
           style="fill:none;stroke:#808080;stroke-width:1;stroke-linecap:butt;stroke-linejoin:miter;stroke-dasharray:none;stroke-opacity:1"
           d="m 297.62894,-173.0126 v 7.62969"
           id="path11792-73-9" /><path
           style="fill:none;stroke:#808080;stroke-width:1;stroke-linecap:butt;stroke-linejoin:miter;stroke-dasharray:none;stroke-opacity:1"
           d="m 66.086255,-173.0126 v 3.60688"
           id="path11794" /><path
           style="fill:none;stroke:#808080;stroke-width:1;stroke-linecap:butt;stroke-linejoin:miter;stroke-dasharray:none;stroke-opacity:1"
           d="m 75.733867,-173.0126 v 3.60688"
           id="path11794-7" /><path
           style="fill:none;stroke:#808080;stroke-width:1;stroke-linecap:butt;stroke-linejoin:miter;stroke-dasharray:none;stroke-opacity:1"
           d="m 85.381478,-173.0126 v 3.60688"
           id="path11794-4" /><path
           style="fill:none;stroke:#808080;stroke-width:1;stroke-linecap:butt;stroke-linejoin:miter;stroke-dasharray:none;stroke-opacity:1"
           d="m 95.029091,-173.0126 v 3.60688"
           id="path11794-5" /><path
           style="fill:none;stroke:#808080;stroke-width:1;stroke-linecap:butt;stroke-linejoin:miter;stroke-dasharray:none;stroke-opacity:1"
           d="m 114.32432,-173.0126 v 3.60688"
           id="path11794-2" /><path
           style="fill:none;stroke:#808080;stroke-width:1;stroke-linecap:butt;stroke-linejoin:miter;stroke-dasharray:none;stroke-opacity:1"
           d="m 123.97193,-173.0126 v 3.60688"
           id="path11794-54" /><path
           style="fill:none;stroke:#808080;stroke-width:1;stroke-linecap:butt;stroke-linejoin:miter;stroke-dasharray:none;stroke-opacity:1"
           d="m 133.61954,-173.0126 v 3.60688"
           id="path11794-74" /><path
           style="fill:none;stroke:#808080;stroke-width:1;stroke-linecap:butt;stroke-linejoin:miter;stroke-dasharray:none;stroke-opacity:1"
           d="m 143.26715,-173.0126 v 3.60688"
           id="path11794-43" /><path
           style="fill:none;stroke:#808080;stroke-width:1;stroke-linecap:butt;stroke-linejoin:miter;stroke-dasharray:none;stroke-opacity:1"
           d="m 162.56238,-173.0126 v 3.60688"
           id="path11794-0" /><path
           style="fill:none;stroke:#808080;stroke-width:1;stroke-linecap:butt;stroke-linejoin:miter;stroke-dasharray:none;stroke-opacity:1"
           d="m 172.20999,-173.0126 v 3.60688"
           id="path11794-78" /><path
           style="fill:none;stroke:#808080;stroke-width:1;stroke-linecap:butt;stroke-linejoin:miter;stroke-dasharray:none;stroke-opacity:1"
           d="m 181.8576,-173.0126 v 3.60688"
           id="path11794-6" /><path
           style="fill:none;stroke:#808080;stroke-width:1;stroke-linecap:butt;stroke-linejoin:miter;stroke-dasharray:none;stroke-opacity:1"
           d="m 191.50521,-173.0126 v 3.60688"
           id="path11794-8" /><path
           style="fill:none;stroke:#808080;stroke-width:1;stroke-linecap:butt;stroke-linejoin:miter;stroke-dasharray:none;stroke-opacity:1"
           d="m 210.80044,-173.0126 v 3.60688"
           id="path11794-84" /><path
           style="fill:none;stroke:#808080;stroke-width:1;stroke-linecap:butt;stroke-linejoin:miter;stroke-dasharray:none;stroke-opacity:1"
           d="m 220.44805,-173.0126 v 3.60688"
           id="path11794-3" /><path
           style="fill:none;stroke:#808080;stroke-width:1;stroke-linecap:butt;stroke-linejoin:miter;stroke-dasharray:none;stroke-opacity:1"
           d="m 230.09567,-173.0126 v 3.60688"
           id="path11794-1" /><path
           style="fill:none;stroke:#808080;stroke-width:1;stroke-linecap:butt;stroke-linejoin:miter;stroke-dasharray:none;stroke-opacity:1"
           d="m 239.74327,-173.0126 v 3.60688"
           id="path11794-49" /><path
           style="fill:none;stroke:#808080;stroke-width:1;stroke-linecap:butt;stroke-linejoin:miter;stroke-dasharray:none;stroke-opacity:1"
           d="m 259.03851,-173.0126 v 3.60688"
           id="path11794-20" /><path
           style="fill:none;stroke:#808080;stroke-width:1;stroke-linecap:butt;stroke-linejoin:miter;stroke-dasharray:none;stroke-opacity:1"
           d="m 268.6861,-173.0126 v 3.60688"
           id="path11794-68" /><path
           style="fill:none;stroke:#808080;stroke-width:1;stroke-linecap:butt;stroke-linejoin:miter;stroke-dasharray:none;stroke-opacity:1"
           d="m 278.33372,-173.0126 v 3.60688"
           id="path11794-9" /><path
           style="fill:none;stroke:#808080;stroke-width:1;stroke-linecap:butt;stroke-linejoin:miter;stroke-dasharray:none;stroke-opacity:1"
           d="m 287.98134,-173.0126 v 3.60688"
           id="path11794-26" /><path
           style="fill:none;stroke:#808080;stroke-width:1;stroke-linecap:butt;stroke-linejoin:miter;stroke-dasharray:none;stroke-opacity:1"
           d="m 307.27656,-173.0126 v 3.60688"
           id="path11794-64" /><path
           style="fill:none;stroke:#808080;stroke-width:1;stroke-linecap:butt;stroke-linejoin:miter;stroke-dasharray:none;stroke-opacity:1"
           d="m 316.92418,-173.0126 v 3.60688"
           id="path11794-95" /><path
           style="fill:none;stroke:#808080;stroke-width:1;stroke-linecap:butt;stroke-linejoin:miter;stroke-dasharray:none;stroke-opacity:1"
           d="m 326.57178,-173.0126 v 3.60688"
           id="path11794-04" /><path
           style="fill:none;stroke:#808080;stroke-width:1;stroke-linecap:butt;stroke-linejoin:miter;stroke-dasharray:none;stroke-opacity:1"
           d="m 336.21939,-173.0126 v 3.60688"
           id="path11794-87" /><path
           style="fill:none;stroke:#808080;stroke-width:1;stroke-linecap:butt;stroke-linejoin:miter;stroke-dasharray:none;stroke-opacity:1"
           d="m 355.51461,-173.0126 v 3.60688"
           id="path11794-27" /><path
           style="fill:none;stroke:#808080;stroke-width:1;stroke-linecap:butt;stroke-linejoin:miter;stroke-dasharray:none;stroke-opacity:1"
           d="m 403.75269,-173.0126 v 3.60688"
           id="path11794-61" /><path
           style="fill:none;stroke:#808080;stroke-width:1;stroke-linecap:butt;stroke-linejoin:miter;stroke-dasharray:none;stroke-opacity:1"
           d="m 413.4003,-173.0126 v 3.60688"
           id="path11794-06" /><path
           style="fill:none;stroke:#808080;stroke-width:1;stroke-linecap:butt;stroke-linejoin:miter;stroke-dasharray:none;stroke-opacity:1"
           d="m 423.0479,-173.0126 v 3.60688"
           id="path11794-15" /><path
           style="fill:none;stroke:#808080;stroke-width:1;stroke-linecap:butt;stroke-linejoin:miter;stroke-dasharray:none;stroke-opacity:1"
           d="m 432.69552,-173.0126 v 3.60688"
           id="path11794-94" /><path
           style="fill:none;stroke:#808080;stroke-width:1;stroke-linecap:butt;stroke-linejoin:miter;stroke-dasharray:none;stroke-opacity:1"
           d="m 451.99074,-173.0126 v 3.60688"
           id="path11794-90" /><path
           style="fill:none;stroke:#808080;stroke-width:1;stroke-linecap:butt;stroke-linejoin:miter;stroke-dasharray:none;stroke-opacity:1"
           d="m 461.63836,-173.0126 v 3.60688"
           id="path11794-91" /><path
           style="fill:none;stroke:#808080;stroke-width:1;stroke-linecap:butt;stroke-linejoin:miter;stroke-dasharray:none;stroke-opacity:1"
           d="m 471.28598,-173.0126 v 3.60688"
           id="path11794-77" /><path
           style="fill:none;stroke:#808080;stroke-width:1;stroke-linecap:butt;stroke-linejoin:miter;stroke-dasharray:none;stroke-opacity:1"
           d="m 480.93357,-173.0126 v 3.60688"
           id="path11794-11" /><path
           style="fill:none;stroke:#808080;stroke-width:1;stroke-linecap:butt;stroke-linejoin:miter;stroke-dasharray:none;stroke-opacity:1"
           d="m 394.10507,-173.0126 v 7.62969"
           id="path11792-6" /><path
           style="fill:none;stroke:#808080;stroke-width:1;stroke-linecap:butt;stroke-linejoin:miter;stroke-dasharray:none;stroke-opacity:1"
           d="m 442.34314,-173.0126 v 7.62969"
           id="path11792-3" /><path
           style="fill:none;stroke:#808080;stroke-width:1;stroke-linecap:butt;stroke-linejoin:miter;stroke-dasharray:none;stroke-opacity:1"
           d="m 490.58119,-173.0126 v 7.62969"
           id="path11792-94" /><path
           style="fill:none;stroke:#808080;stroke-width:1;stroke-linecap:butt;stroke-linejoin:miter;stroke-dasharray:none;stroke-opacity:1"
           d="m 384.45747,-173.0126 v 3.60688"
           id="path11794-27-2" /><path
           style="fill:none;stroke:#808080;stroke-width:1;stroke-linecap:butt;stroke-linejoin:miter;stroke-dasharray:none;stroke-opacity:1"
           d="m 365.16223,-173.0126 v 3.60688"
           id="path11794-27-9" /><path
           style="fill:none;stroke:#808080;stroke-width:1;stroke-linecap:butt;stroke-linejoin:miter;stroke-dasharray:none;stroke-opacity:1"
           d="m 374.80985,-173.0126 v 3.60688"
           id="path11794-27-3" /><text
           xml:space="preserve"
           style="font-style:normal;font-variant:normal;font-weight:normal;font-stretch:normal;font-size:13.3749px;line-height:1.25;font-family:sans-serif;-inkscape-font-specification:'sans-serif, Normal';font-variant-ligatures:normal;font-variant-caps:normal;font-variant-numeric:normal;font-variant-east-asian:normal;letter-spacing:0px;word-spacing:0px;fill:#666666;fill-opacity:1;stroke:none;stroke-width:2.00623"
           x="89.957512"
           y="-151.24068"
           id="text14342"><tspan
             sodipodi:role="line"
             id="tspan14340"
             x="89.957512"
             y="-151.24068"
             style="stroke-width:2.00623">10<tspan
   style="font-size:8.69369px;baseline-shift:super;fill:#666666;stroke:none;stroke-width:2.00623"
   id="tspan14346">-20</tspan></tspan></text><text
           xml:space="preserve"
           style="font-style:normal;font-variant:normal;font-weight:normal;font-stretch:normal;font-size:13.3749px;line-height:1.25;font-family:sans-serif;-inkscape-font-specification:'sans-serif, Normal';font-variant-ligatures:normal;font-variant-caps:normal;font-variant-numeric:normal;font-variant-east-asian:normal;letter-spacing:0px;word-spacing:0px;fill:#666666;fill-opacity:1;stroke:none;stroke-width:2.00623"
           x="187.24263"
           y="-151.37128"
           id="text14352"><tspan
             sodipodi:role="line"
             id="tspan14350"
             x="187.24263"
             y="-151.37128"
             style="stroke-width:2.00623">10<tspan
   style="font-size:8.69369px;baseline-shift:super;fill:#666666;stroke:none;stroke-width:2.00623"
   id="tspan14348">-10</tspan></tspan></text><text
           xml:space="preserve"
           style="font-style:normal;font-variant:normal;font-weight:normal;font-stretch:normal;font-size:13.3749px;line-height:1.25;font-family:sans-serif;-inkscape-font-specification:'sans-serif, Normal';font-variant-ligatures:normal;font-variant-caps:normal;font-variant-numeric:normal;font-variant-east-asian:normal;letter-spacing:0px;word-spacing:0px;fill:#666666;fill-opacity:1;stroke:none;stroke-width:2.00623"
           x="380.23294"
           y="-152.3622"
           id="text14352-6"><tspan
             sodipodi:role="line"
             id="tspan14350-3"
             x="380.23294"
             y="-152.3622"
             style="stroke-width:2.00623">10<tspan
   style="font-size:8.69369px;baseline-shift:super;fill:#666666;stroke:none;stroke-width:2.00623"
   id="tspan14348-8">10</tspan></tspan></text><text
           xml:space="preserve"
           style="font-style:normal;font-variant:normal;font-weight:normal;font-stretch:normal;font-size:13.3749px;line-height:1.25;font-family:sans-serif;-inkscape-font-specification:'sans-serif, Normal';font-variant-ligatures:normal;font-variant-caps:normal;font-variant-numeric:normal;font-variant-east-asian:normal;letter-spacing:0px;word-spacing:0px;fill:#666666;fill-opacity:1;stroke:none;stroke-width:2.00623"
           x="477.03372"
           y="-151.35909"
           id="text14352-5"><tspan
             sodipodi:role="line"
             id="tspan14350-6"
             x="477.03372"
             y="-151.35909"
             style="stroke-width:2.00623">10<tspan
   style="font-size:8.69369px;baseline-shift:super;fill:#666666;stroke:none;stroke-width:2.00623"
   id="tspan14348-1">20</tspan></tspan></text><text
           xml:space="preserve"
           style="font-style:normal;font-variant:normal;font-weight:normal;font-stretch:normal;font-size:13.3749px;line-height:1.25;font-family:sans-serif;-inkscape-font-specification:'sans-serif, Normal';font-variant-ligatures:normal;font-variant-caps:normal;font-variant-numeric:normal;font-variant-east-asian:normal;letter-spacing:0px;word-spacing:0px;fill:#666666;fill-opacity:1;stroke:none;stroke-width:2.00623"
           x="296.86047"
           y="-175.36636"
           id="text14352-5-1"><tspan
             sodipodi:role="line"
             id="tspan14350-6-7"
             x="296.86047"
             y="-175.36636"
             style="stroke-width:2.00623">10<tspan
   style="font-size:8.69369px;baseline-shift:super;fill:#666666;stroke:none;stroke-width:2.00623"
   id="tspan14348-1-5">0</tspan></tspan></text><path
           style="fill:none;stroke:#808080;stroke-width:1;stroke-linecap:butt;stroke-linejoin:miter;stroke-dasharray:none;stroke-opacity:1"
           d="m 295.27605,-416.90336 -7.62897,0.10392"
           id="path12537" /><path
           style="fill:none;stroke:#808080;stroke-width:1;stroke-linecap:butt;stroke-linejoin:miter;stroke-dasharray:none;stroke-opacity:1"
           d="m 295.39215,-465.83383 -7.62897,0.10393"
           id="path12537-0" /><path
           style="fill:none;stroke:#808080;stroke-width:1;stroke-linecap:butt;stroke-linejoin:miter;stroke-dasharray:none;stroke-opacity:1"
           d="m 295.54047,-368.15755 -7.62897,0.10392"
           id="path12539" /><path
           style="fill:none;stroke:#808080;stroke-width:1;stroke-linecap:butt;stroke-linejoin:miter;stroke-dasharray:none;stroke-opacity:1"
           d="m 296.21964,-319.44334 -7.62897,0.10393"
           id="path12541" /><path
           style="fill:none;stroke:#808080;stroke-width:1;stroke-linecap:butt;stroke-linejoin:miter;stroke-dasharray:none;stroke-opacity:1"
           d="m 296.87385,-271.09376 -7.62898,0.10393"
           id="path12543" /><path
           style="fill:none;stroke:#808080;stroke-width:1;stroke-linecap:butt;stroke-linejoin:miter;stroke-dasharray:none;stroke-opacity:1"
           d="m 296.98841,-220.19923 -7.62899,0.10392"
           id="path12545" /><path
           style="fill:none;stroke:#808080;stroke-width:1;stroke-linecap:butt;stroke-linejoin:miter;stroke-dasharray:none;stroke-opacity:1"
           d="m 297.70301,-123.5111 -7.62899,0.10392"
           id="path12547" /><path
           style="fill:none;stroke:#808080;stroke-width:1;stroke-linecap:butt;stroke-linejoin:miter;stroke-dasharray:none;stroke-opacity:1"
           d="m 297.17938,-172.90078 -7.62898,0.10393"
           id="path12549" /><path
           style="fill:none;stroke:#808080;stroke-width:1;stroke-linecap:butt;stroke-linejoin:miter;stroke-dasharray:none;stroke-opacity:1"
           d="m 295.02798,-407.04655 -3.60657,0.0491"
           id="path12551" /><path
           style="fill:none;stroke:#808080;stroke-width:1;stroke-linecap:butt;stroke-linejoin:miter;stroke-dasharray:none;stroke-opacity:1"
           d="m 294.89581,-426.15086 -3.60657,0.0492"
           id="path12551-8" /><path
           style="fill:none;stroke:#808080;stroke-width:1;stroke-linecap:butt;stroke-linejoin:miter;stroke-dasharray:none;stroke-opacity:1"
           d="m 295.27198,-436.43281 -3.60657,0.0492"
           id="path12551-85" /><path
           style="fill:none;stroke:#808080;stroke-width:1;stroke-linecap:butt;stroke-linejoin:miter;stroke-dasharray:none;stroke-opacity:1"
           d="m 295.27198,-445.96242 -3.60657,0.0492"
           id="path12551-0" /><path
           style="fill:none;stroke:#808080;stroke-width:1;stroke-linecap:butt;stroke-linejoin:miter;stroke-dasharray:none;stroke-opacity:1"
           d="m 295.0212,-456.11898 -3.60657,0.0491"
           id="path12551-9" /><path
           style="fill:none;stroke:#808080;stroke-width:1;stroke-linecap:butt;stroke-linejoin:miter;stroke-dasharray:none;stroke-opacity:1"
           d="m 295.02033,-397.17903 -3.60654,0.0491"
           id="path12553" /><path
           style="fill:none;stroke:#808080;stroke-width:1;stroke-linecap:butt;stroke-linejoin:miter;stroke-dasharray:none;stroke-opacity:1"
           d="m 295.17409,-387.22038 -3.60656,0.0491"
           id="path12555" /><path
           style="fill:none;stroke:#808080;stroke-width:1;stroke-linecap:butt;stroke-linejoin:miter;stroke-dasharray:none;stroke-opacity:1"
           d="m 295.41093,-377.98741 -3.60655,0.0491"
           id="path12557" /><path
           style="fill:none;stroke:#808080;stroke-width:1;stroke-linecap:butt;stroke-linejoin:miter;stroke-dasharray:none;stroke-opacity:1"
           d="m 295.79209,-358.7457 -3.60654,0.0491"
           id="path12559" /><path
           style="fill:none;stroke:#808080;stroke-width:1;stroke-linecap:butt;stroke-linejoin:miter;stroke-dasharray:none;stroke-opacity:1"
           d="m 296.04337,-349.04462 -3.60654,0.0491"
           id="path12561" /><path
           style="fill:none;stroke:#808080;stroke-width:1;stroke-linecap:butt;stroke-linejoin:miter;stroke-dasharray:none;stroke-opacity:1"
           d="m 295.72641,-338.89251 -3.60657,0.0491"
           id="path12563" /><path
           style="fill:none;stroke:#808080;stroke-width:1;stroke-linecap:butt;stroke-linejoin:miter;stroke-dasharray:none;stroke-opacity:1"
           d="m 296.05515,-329.16816 -3.60655,0.0492"
           id="path12565" /><path
           style="fill:none;stroke:#808080;stroke-width:1;stroke-linecap:butt;stroke-linejoin:miter;stroke-dasharray:none;stroke-opacity:1"
           d="m 295.79707,-310.0551 -3.60655,0.0491"
           id="path12567" /><path
           style="fill:none;stroke:#808080;stroke-width:1;stroke-linecap:butt;stroke-linejoin:miter;stroke-dasharray:none;stroke-opacity:1"
           d="m 295.68494,-301.78757 -3.60655,0.0491"
           id="path12569" /><path
           style="fill:none;stroke:#808080;stroke-width:1;stroke-linecap:butt;stroke-linejoin:miter;stroke-dasharray:none;stroke-opacity:1"
           d="m 296.28236,-291.60957 -3.60657,0.0492"
           id="path12571" /><path
           style="fill:none;stroke:#808080;stroke-width:1;stroke-linecap:butt;stroke-linejoin:miter;stroke-dasharray:none;stroke-opacity:1"
           d="m 296.10448,-280.4271 -3.60654,0.0491"
           id="path12573" /><path
           style="fill:none;stroke:#808080;stroke-width:1;stroke-linecap:butt;stroke-linejoin:miter;stroke-dasharray:none;stroke-opacity:1"
           d="m 297.22894,-260.12393 -3.60655,0.0491"
           id="path12575" /><path
           style="fill:none;stroke:#808080;stroke-width:1;stroke-linecap:butt;stroke-linejoin:miter;stroke-dasharray:none;stroke-opacity:1"
           d="m 296.77053,-250.72755 -3.60654,0.0491"
           id="path12577" /><path
           style="fill:none;stroke:#808080;stroke-width:1;stroke-linecap:butt;stroke-linejoin:miter;stroke-dasharray:none;stroke-opacity:1"
           d="m 296.6582,-240.81068 -3.60656,0.0492"
           id="path12579" /><path
           style="fill:none;stroke:#808080;stroke-width:1;stroke-linecap:butt;stroke-linejoin:miter;stroke-dasharray:none;stroke-opacity:1"
           d="m 296.10709,-230.28013 -3.60655,0.0492"
           id="path12581" /><path
           style="fill:none;stroke:#808080;stroke-width:1;stroke-linecap:butt;stroke-linejoin:miter;stroke-dasharray:none;stroke-opacity:1"
           d="m 295.99314,-211.91489 -3.60655,0.0492"
           id="path12583" /><path
           style="fill:none;stroke:#808080;stroke-width:1;stroke-linecap:butt;stroke-linejoin:miter;stroke-dasharray:none;stroke-opacity:1"
           d="m 295.76441,-202.12962 -3.60655,0.0491"
           id="path12585" /><path
           style="fill:none;stroke:#808080;stroke-width:1;stroke-linecap:butt;stroke-linejoin:miter;stroke-dasharray:none;stroke-opacity:1"
           d="m 296.154,-192.09869 -3.60655,0.0491"
           id="path12587" /><path
           style="fill:none;stroke:#808080;stroke-width:1;stroke-linecap:butt;stroke-linejoin:miter;stroke-dasharray:none;stroke-opacity:1"
           d="m 296.17033,-180.80458 -3.60655,0.0492"
           id="path12589" /><path
           style="fill:none;stroke:#808080;stroke-width:1;stroke-linecap:butt;stroke-linejoin:miter;stroke-dasharray:none;stroke-opacity:1"
           d="m 296.65909,-162.54425 -3.60655,0.0491"
           id="path12591" /><path
           style="fill:none;stroke:#808080;stroke-width:1;stroke-linecap:butt;stroke-linejoin:miter;stroke-dasharray:none;stroke-opacity:1"
           d="m 296.98159,-152.55229 -3.60655,0.0492"
           id="path12593" /><path
           style="fill:none;stroke:#808080;stroke-width:1;stroke-linecap:butt;stroke-linejoin:miter;stroke-dasharray:none;stroke-opacity:1"
           d="m 296.92957,-144.0864 -3.60655,0.0491"
           id="path12595" /><path
           style="fill:none;stroke:#808080;stroke-width:1;stroke-linecap:butt;stroke-linejoin:miter;stroke-dasharray:none;stroke-opacity:1"
           d="m 296.63798,-133.17706 -3.60655,0.0491"
           id="path12597" /><path
           style="fill:none;stroke:#808080;stroke-width:1;stroke-linecap:butt;stroke-linejoin:miter;stroke-dasharray:none;stroke-opacity:1"
           d="m 297.268,-113.52961 -3.60655,0.0492"
           id="path12599" /><path
           style="fill:none;stroke:#808080;stroke-width:1;stroke-linecap:butt;stroke-linejoin:miter;stroke-dasharray:none;stroke-opacity:1"
           d="m 297.47998,-64.214969 -3.60655,0.04915"
           id="path12601" /><path
           style="fill:none;stroke:#808080;stroke-width:1;stroke-linecap:butt;stroke-linejoin:miter;stroke-dasharray:none;stroke-opacity:1"
           d="m 297.61149,-54.568233 -3.60657,0.04915"
           id="path12603" /><path
           style="fill:none;stroke:#808080;stroke-width:1;stroke-linecap:butt;stroke-linejoin:miter;stroke-dasharray:none;stroke-opacity:1"
           d="m 297.74297,-44.921538 -3.60654,0.04915"
           id="path12605" /><path
           style="fill:none;stroke:#808080;stroke-width:1;stroke-linecap:butt;stroke-linejoin:miter;stroke-dasharray:none;stroke-opacity:1"
           d="m 297.87446,-35.274822 -3.60654,0.04915"
           id="path12607" /><path
           style="fill:none;stroke:#808080;stroke-width:1;stroke-linecap:butt;stroke-linejoin:miter;stroke-dasharray:none;stroke-opacity:1"
           d="m 298.13746,-15.98139 -3.60655,0.04915"
           id="path12609" /><path
           style="fill:none;stroke:#808080;stroke-width:1;stroke-linecap:butt;stroke-linejoin:miter;stroke-dasharray:none;stroke-opacity:1"
           d="m 298.26897,-6.3346742 -3.60657,0.049153"
           id="path12611" /><path
           style="fill:none;stroke:#808080;stroke-width:1;stroke-linecap:butt;stroke-linejoin:miter;stroke-dasharray:none;stroke-opacity:1"
           d="m 298.40046,3.3120618 -3.60655,0.049153"
           id="path12613" /><path
           style="fill:none;stroke:#808080;stroke-width:1;stroke-linecap:butt;stroke-linejoin:miter;stroke-dasharray:none;stroke-opacity:1"
           d="m 298.53195,12.958758 -3.60655,0.04915"
           id="path12615" /><path
           style="fill:none;stroke:#808080;stroke-width:1;stroke-linecap:butt;stroke-linejoin:miter;stroke-dasharray:none;stroke-opacity:1"
           d="m 297.59927,-74.959175 -7.62899,0.103922"
           id="path12617" /><path
           style="fill:none;stroke:#808080;stroke-width:1;stroke-linecap:butt;stroke-linejoin:miter;stroke-dasharray:none;stroke-opacity:1"
           d="m 298.00597,-25.628086 -7.62898,0.103923"
           id="path12619" /><path
           style="fill:none;stroke:#808080;stroke-width:1;stroke-linecap:butt;stroke-linejoin:miter;stroke-dasharray:none;stroke-opacity:1"
           d="m 298.66345,22.605473 -7.62898,0.103923"
           id="path12621" /><path
           style="fill:none;stroke:#808080;stroke-width:1;stroke-linecap:butt;stroke-linejoin:miter;stroke-dasharray:none;stroke-opacity:1"
           d="m 297.06559,-84.350598 -3.60655,0.04915"
           id="path12623" /><path
           style="fill:none;stroke:#808080;stroke-width:1;stroke-linecap:butt;stroke-linejoin:miter;stroke-dasharray:none;stroke-opacity:1"
           d="m 297.44545,-103.76703 -3.60657,0.0492"
           id="path12625" /><path
           style="fill:none;stroke:#808080;stroke-width:1;stroke-linecap:butt;stroke-linejoin:miter;stroke-dasharray:none;stroke-opacity:1"
           d="m 297.12584,-93.888897 -3.60655,0.04915"
           id="path12627" /><text
           xml:space="preserve"
           style="font-style:normal;font-variant:normal;font-weight:normal;font-stretch:normal;font-size:13.3749px;line-height:1.25;font-family:sans-serif;-inkscape-font-specification:'sans-serif, Normal';font-variant-ligatures:normal;font-variant-caps:normal;font-variant-numeric:normal;font-variant-east-asian:normal;letter-spacing:0px;word-spacing:0px;fill:#666666;fill-opacity:1;stroke:none;stroke-width:2.00623"
           x="254.34172"
           y="28.700455"
           id="text14342-1"><tspan
             sodipodi:role="line"
             id="tspan14340-5"
             x="254.34172"
             y="28.700455"
             style="stroke-width:2.00623">10<tspan
   style="font-size:8.69369px;baseline-shift:super;fill:#666666;stroke:none;stroke-width:2.00623"
   id="tspan14346-9">-20</tspan></tspan></text><text
           xml:space="preserve"
           style="font-style:normal;font-variant:normal;font-weight:normal;font-stretch:normal;font-size:13.3749px;line-height:1.25;font-family:sans-serif;-inkscape-font-specification:'sans-serif, Normal';font-variant-ligatures:normal;font-variant-caps:normal;font-variant-numeric:normal;font-variant-east-asian:normal;letter-spacing:0px;word-spacing:0px;fill:#666666;fill-opacity:1;stroke:none;stroke-width:2.00623"
           x="252.33549"
           y="-70.106606"
           id="text14352-8"><tspan
             sodipodi:role="line"
             id="tspan14350-4"
             x="252.33549"
             y="-70.106606"
             style="stroke-width:2.00623">10<tspan
   style="font-size:8.69369px;baseline-shift:super;fill:#666666;stroke:none;stroke-width:2.00623"
   id="tspan14348-81">-10</tspan></tspan></text><text
           xml:space="preserve"
           style="font-style:normal;font-variant:normal;font-weight:normal;font-stretch:normal;font-size:13.3749px;line-height:1.25;font-family:sans-serif;-inkscape-font-specification:'sans-serif, Normal';font-variant-ligatures:normal;font-variant-caps:normal;font-variant-numeric:normal;font-variant-east-asian:normal;letter-spacing:0px;word-spacing:0px;fill:#666666;fill-opacity:1;stroke:none;stroke-width:2.00623"
           x="254.90712"
           y="-265.21286"
           id="text14352-6-0"><tspan
             sodipodi:role="line"
             id="tspan14350-3-3"
             x="254.90712"
             y="-265.21286"
             style="stroke-width:2.00623">10<tspan
   style="font-size:8.69369px;baseline-shift:super;fill:#666666;stroke:none;stroke-width:2.00623"
   id="tspan14348-8-0">10</tspan></tspan></text><text
           xml:space="preserve"
           style="font-style:normal;font-variant:normal;font-weight:normal;font-stretch:normal;font-size:13.3749px;line-height:1.25;font-family:sans-serif;-inkscape-font-specification:'sans-serif, Normal';font-variant-ligatures:normal;font-variant-caps:normal;font-variant-numeric:normal;font-variant-east-asian:normal;letter-spacing:0px;word-spacing:0px;fill:#666666;fill-opacity:1;stroke:none;stroke-width:2.00623"
           x="256.91336"
           y="-364.0199"
           id="text14352-5-4"><tspan
             sodipodi:role="line"
             id="tspan14350-6-4"
             x="256.91336"
             y="-364.0199"
             style="stroke-width:2.00623">10<tspan
   style="font-size:8.69369px;baseline-shift:super;fill:#666666;stroke:none;stroke-width:2.00623"
   id="tspan14348-1-4">20</tspan></tspan></text><text
           xml:space="preserve"
           style="font-style:normal;font-variant:normal;font-weight:normal;font-stretch:normal;font-size:13.3749px;line-height:1.25;font-family:sans-serif;-inkscape-font-specification:'sans-serif, Normal';font-variant-ligatures:normal;font-variant-caps:normal;font-variant-numeric:normal;font-variant-east-asian:normal;letter-spacing:0px;word-spacing:0px;fill:#666666;fill-opacity:1;stroke:none;stroke-width:2.00623"
           x="257.41495"
           y="-460.82071"
           id="text14352-5-47"><tspan
             sodipodi:role="line"
             id="tspan14350-6-6"
             x="257.41495"
             y="-460.82071"
             style="stroke-width:2.00623">10<tspan
   style="font-size:8.69369px;baseline-shift:super;fill:#666666;stroke:none;stroke-width:2.00623"
   id="tspan14348-1-3">30</tspan></tspan></text><rect
           style="fill:none;stroke:#333333;stroke-width:1.00312;stroke-linecap:round;stroke-linejoin:round;stroke-dasharray:none;stroke-dashoffset:27.384;paint-order:stroke fill markers"
           id="rect9982"
           width="241.58745"
           height="60.1502"
           x="238.54651"
           y="-445.0372"
           ry="11.285419" /><circle
           style="fill:#000000;stroke:#0000ff;stroke-width:1.00312;stroke-linecap:round;stroke-linejoin:round;stroke-dasharray:none;stroke-dashoffset:27.384;paint-order:stroke fill markers"
           id="path10314-3"
           cx="374.4505"
           cy="-414.25259"
           r="2.8476338" /><text
           xml:space="preserve"
           style="font-style:normal;font-variant:normal;font-weight:normal;font-stretch:normal;font-size:16px;line-height:1.25;font-family:sans-serif;-inkscape-font-specification:'sans-serif, Normal';font-variant-ligatures:normal;font-variant-caps:normal;font-variant-numeric:normal;font-variant-east-asian:normal;letter-spacing:0px;word-spacing:0px;fill:#000000;fill-opacity:1;stroke:none;stroke-width:2.00623"
           x="149.84554"
           y="-407.53976"
           id="text10505"><tspan
             sodipodi:role="line"
             id="tspan10503"
             x="149.84554"
             y="-407.53976"
             style="font-style:normal;font-variant:normal;font-weight:normal;font-stretch:normal;font-size:16px;font-family:sans-serif;-inkscape-font-specification:'sans-serif, Normal';font-variant-ligatures:normal;font-variant-caps:normal;font-variant-numeric:normal;font-variant-east-asian:normal;text-align:end;text-anchor:end;stroke-width:2.00623">COSMIC</tspan></text><path
           style="display:inline;fill:none;fill-rule:evenodd;stroke:#000000;stroke-width:1;stroke-linecap:butt;stroke-linejoin:miter;stroke-dasharray:none;stroke-opacity:1;marker-end:url(#Arrow1Mend)"
           d="m 157.39901,-412.08266 214.20403,-2.14147"
           id="path10583"
           inkscape:connector-type="polyline"
           inkscape:connector-curvature="0"
           inkscape:connection-end="#path10314-3" /><rect
           style="fill:none;stroke:#333333;stroke-width:1.00312;stroke-linecap:round;stroke-linejoin:round;stroke-dasharray:none;stroke-dashoffset:27.384;paint-order:stroke fill markers"
           id="rect9984"
           width="211.98795"
           height="99.37355"
           x="257.51291"
           y="-401.45349"
           ry="11.285419" /><circle
           style="fill:#000000;stroke:#0000ff;stroke-width:1.00312;stroke-linecap:round;stroke-linejoin:round;stroke-dasharray:none;stroke-dashoffset:27.384;paint-order:stroke fill markers"
           id="path10314-1"
           cx="374.62784"
           cy="-338.35629"
           r="2.8476338" /><text
           xml:space="preserve"
           style="font-style:normal;font-variant:normal;font-weight:normal;font-stretch:normal;font-size:16px;line-height:1.25;font-family:sans-serif;-inkscape-font-specification:'sans-serif, Normal';font-variant-ligatures:normal;font-variant-caps:normal;font-variant-numeric:normal;font-variant-east-asian:normal;letter-spacing:0px;word-spacing:0px;fill:#000000;fill-opacity:1;stroke:none;stroke-width:2.00623"
           x="149.84554"
           y="-363.14517"
           id="text10513"><tspan
             sodipodi:role="line"
             id="tspan10511"
             x="149.84554"
             y="-363.14517"
             style="font-style:normal;font-variant:normal;font-weight:normal;font-stretch:normal;font-size:16px;font-family:sans-serif;-inkscape-font-specification:'sans-serif, Normal';font-variant-ligatures:normal;font-variant-caps:normal;font-variant-numeric:normal;font-variant-east-asian:normal;text-align:end;text-anchor:end;stroke-width:2.00623">GALACTIC</tspan></text><path
           style="display:inline;fill:none;fill-rule:evenodd;stroke:#000000;stroke-width:1;stroke-linecap:butt;stroke-linejoin:miter;stroke-dasharray:none;stroke-opacity:1;marker-end:url(#Arrow1Mend)"
           d="m 155.67101,-369.67614 216.13794,30.91663"
           id="path10617"
           inkscape:connector-type="polyline"
           inkscape:connector-curvature="0"
           inkscape:connection-end="#path10314-1" /><rect
           style="fill:none;stroke:#333333;stroke-width:1.00312;stroke-linecap:round;stroke-linejoin:round;stroke-dasharray:none;stroke-dashoffset:27.384;paint-order:stroke fill markers"
           id="rect9986"
           width="184.50951"
           height="59.865776"
           x="278.53583"
           y="-313.51303"
           ry="11.285419" /><circle
           style="fill:#000000;stroke:#0000ff;stroke-width:1.00312;stroke-linecap:round;stroke-linejoin:round;stroke-dasharray:none;stroke-dashoffset:27.384;paint-order:stroke fill markers"
           id="path10314-9"
           cx="373.91852"
           cy="-281.07944"
           r="2.8476338" /><text
           xml:space="preserve"
           style="font-style:normal;font-variant:normal;font-weight:normal;font-stretch:normal;font-size:16px;line-height:1.25;font-family:sans-serif;-inkscape-font-specification:'sans-serif, Normal';font-variant-ligatures:normal;font-variant-caps:normal;font-variant-numeric:normal;font-variant-east-asian:normal;letter-spacing:0px;word-spacing:0px;fill:#000000;fill-opacity:1;stroke:none;stroke-width:2.00623"
           x="149.84554"
           y="-312.42996"
           id="text10517"><tspan
             sodipodi:role="line"
             id="tspan10515"
             x="149.84554"
             y="-312.42996"
             style="font-style:normal;font-variant:normal;font-weight:normal;font-stretch:normal;font-size:16px;font-family:sans-serif;-inkscape-font-specification:'sans-serif, Normal';font-variant-ligatures:normal;font-variant-caps:normal;font-variant-numeric:normal;font-variant-east-asian:normal;text-align:end;text-anchor:end;stroke-width:2.00623">ASTRONOMIC</tspan></text><path
           style="display:inline;fill:none;fill-rule:evenodd;stroke:#000000;stroke-width:1;stroke-linecap:butt;stroke-linejoin:miter;stroke-dasharray:none;stroke-opacity:1;marker-end:url(#Arrow1Mend)"
           d="m 156.0606,-316.95278 215.04817,35.41068"
           id="path10621"
           inkscape:connector-type="polyline"
           inkscape:connector-curvature="0"
           inkscape:connection-end="#path10314-9" /><rect
           style="fill:none;stroke:#333333;stroke-width:1.00312;stroke-linecap:round;stroke-linejoin:round;stroke-dasharray:none;stroke-dashoffset:27.384;paint-order:stroke fill markers"
           id="rect9986-7"
           width="143.98323"
           height="37.972271"
           x="308.83521"
           y="-264.1113"
           ry="11.285419" /><circle
           style="fill:#000000;stroke:#0000ff;stroke-width:1.00312;stroke-linecap:round;stroke-linejoin:round;stroke-dasharray:none;stroke-dashoffset:27.384;paint-order:stroke fill markers"
           id="path10314-4"
           cx="420.37836"
           cy="-244.90459"
           r="2.8476338" /><text
           xml:space="preserve"
           style="font-style:normal;font-variant:normal;font-weight:normal;font-stretch:normal;font-size:16px;line-height:1.25;font-family:sans-serif;-inkscape-font-specification:'sans-serif, Normal';font-variant-ligatures:normal;font-variant-caps:normal;font-variant-numeric:normal;font-variant-east-asian:normal;letter-spacing:0px;word-spacing:0px;fill:#000000;fill-opacity:1;stroke:none;stroke-width:2.00623"
           x="148.9471"
           y="-272.24695"
           id="text10521"><tspan
             sodipodi:role="line"
             id="tspan10519"
             x="148.9471"
             y="-272.24695"
             style="font-style:normal;font-variant:normal;font-weight:normal;font-stretch:normal;font-size:16px;font-family:sans-serif;-inkscape-font-specification:'sans-serif, Normal';font-variant-ligatures:normal;font-variant-caps:normal;font-variant-numeric:normal;font-variant-east-asian:normal;text-align:end;text-anchor:end;stroke-width:2.00623">PLANETARY</tspan></text><path
           style="display:inline;fill:none;fill-rule:evenodd;stroke:#000000;stroke-width:1;stroke-linecap:butt;stroke-linejoin:miter;stroke-dasharray:none;stroke-opacity:1;marker-end:url(#Arrow1Mend-0)"
           d="m 152.87465,-276.66689 261.91499,30.40439"
           id="path10621-3"
           inkscape:connector-type="polyline"
           inkscape:connector-curvature="0" /><rect
           style="opacity:0.76;fill:#5f8dd3;stroke:#333333;stroke-width:1.00312;stroke-linecap:round;stroke-linejoin:round;stroke-dasharray:none;stroke-dashoffset:27.384;paint-order:stroke fill markers"
           id="rect9986-7-3"
           width="81.684669"
           height="31.266239"
           x="317.69925"
           y="-258.42279"
           ry="11.285419" /><circle
           style="fill:#000000;stroke:#0000ff;stroke-width:1.00312;stroke-linecap:round;stroke-linejoin:round;stroke-dasharray:none;stroke-dashoffset:27.384;paint-order:stroke fill markers"
           id="path10314-7"
           cx="358.13635"
           cy="-242.95401"
           r="2.8476338" /><text
           xml:space="preserve"
           style="font-style:normal;font-variant:normal;font-weight:normal;font-stretch:normal;font-size:18.7248px;line-height:1.25;font-family:sans-serif;-inkscape-font-specification:'sans-serif, Normal';font-variant-ligatures:normal;font-variant-caps:normal;font-variant-numeric:normal;font-variant-east-asian:normal;letter-spacing:0px;word-spacing:0px;fill:#000000;fill-opacity:1;stroke:none;stroke-width:2.00623"
           x="149.99323"
           y="-237.92502"
           id="text10525"><tspan
             sodipodi:role="line"
             id="tspan10523"
             x="149.99323"
             y="-237.92502"
             style="text-align:end;text-anchor:end;stroke-width:2.00623">HYDROLOGIC</tspan></text><path
           style="display:inline;fill:none;fill-rule:evenodd;stroke:#000000;stroke-width:1;stroke-linecap:butt;stroke-linejoin:miter;stroke-dasharray:none;stroke-opacity:1;marker-end:url(#Arrow1Mend-2)"
           d="m 152.93841,-243.76842 202.35038,0.80311"
           id="path10621-6"
           inkscape:connector-type="polyline"
           inkscape:connector-curvature="0"
           inkscape:connection-end="#path10314-7" /><rect
           style="opacity:0.6;fill:#6f7c91;stroke:#333333;stroke-width:1.00312;stroke-linecap:round;stroke-linejoin:round;stroke-dasharray:none;stroke-dashoffset:27.384;paint-order:stroke fill markers"
           id="rect9986-7-6"
           width="99.12722"
           height="83.016373"
           x="285.91821"
           y="-234.27084"
           ry="11.285419" /><circle
           style="fill:#000000;stroke:#0000ff;stroke-width:1.00312;stroke-linecap:round;stroke-linejoin:round;stroke-dasharray:none;stroke-dashoffset:27.384;paint-order:stroke fill markers"
           id="path10314-8"
           cx="339.87161"
           cy="-196.13947"
           r="2.8476338" /><text
           xml:space="preserve"
           style="font-style:normal;font-variant:normal;font-weight:normal;font-stretch:normal;font-size:32.0997px;line-height:1.25;font-family:sans-serif;-inkscape-font-specification:'sans-serif, Normal';font-variant-ligatures:normal;font-variant-caps:normal;font-variant-numeric:normal;font-variant-east-asian:normal;letter-spacing:0px;word-spacing:0px;fill:#000000;fill-opacity:1;stroke:none;stroke-width:2.00623"
           x="152.12875"
           y="-185.01573"
           id="text10529"><tspan
             sodipodi:role="line"
             id="tspan10527"
             x="152.12875"
             y="-185.01573"
             style="font-style:normal;font-variant:normal;font-weight:normal;font-stretch:normal;font-size:32.0997px;font-family:sans-serif;-inkscape-font-specification:'sans-serif, Normal';font-variant-ligatures:normal;font-variant-caps:normal;font-variant-numeric:normal;font-variant-east-asian:normal;text-align:end;text-anchor:end;stroke-width:2.00623">HUMAN</tspan></text><path
           style="display:inline;fill:none;fill-rule:evenodd;stroke:#000000;stroke-width:1;stroke-linecap:butt;stroke-linejoin:miter;stroke-dasharray:none;stroke-opacity:1;marker-end:url(#Arrow1Mend-1)"
           d="m 154.97527,-195.96581 176.90789,-1.24308"
           id="path10621-5"
           inkscape:connector-type="polyline"
           inkscape:connector-curvature="0" /><rect
           style="fill:none;stroke:#333333;stroke-width:1.00312;stroke-linecap:round;stroke-linejoin:round;stroke-dasharray:none;stroke-dashoffset:27.384;paint-order:stroke fill markers"
           id="rect9986-7-1"
           width="102.39377"
           height="66.119507"
           x="217.99336"
           y="-141.51042"
           ry="11.285419" /><text
           xml:space="preserve"
           style="font-style:normal;font-variant:normal;font-weight:normal;font-stretch:normal;font-size:16px;line-height:1.25;font-family:sans-serif;-inkscape-font-specification:'sans-serif, Normal';font-variant-ligatures:normal;font-variant-caps:normal;font-variant-numeric:normal;font-variant-east-asian:normal;letter-spacing:0px;word-spacing:0px;fill:#000000;fill-opacity:1;stroke:none;stroke-width:2.00623"
           x="529.73242"
           y="-106.59988"
           id="text11638"><tspan
             sodipodi:role="line"
             id="tspan11636"
             x="529.73242"
             y="-106.59988"
             style="font-style:normal;font-variant:normal;font-weight:normal;font-stretch:normal;font-size:16px;font-family:sans-serif;-inkscape-font-specification:'sans-serif, Normal';font-variant-ligatures:normal;font-variant-caps:normal;font-variant-numeric:normal;font-variant-east-asian:normal;text-align:end;text-anchor:end;stroke-width:2.00623">MODELCULAR</tspan></text><circle
           style="fill:#000000;stroke:#0000ff;stroke-width:1.00312;stroke-linecap:round;stroke-linejoin:round;stroke-dasharray:none;stroke-dashoffset:27.384;paint-order:stroke fill markers"
           id="path10314-45"
           cx="265.39395"
           cy="-110.84483"
           r="2.8476338" /><path
           style="display:inline;fill:none;fill-rule:evenodd;stroke:#000000;stroke-width:1;stroke-linecap:butt;stroke-linejoin:miter;stroke-dasharray:none;stroke-opacity:1;marker-end:url(#Arrow1Mend)"
           d="m 410.99305,-111.15969 -142.7515,0.3087"
           id="path11648"
           inkscape:connector-type="polyline"
           inkscape:connector-curvature="0"
           inkscape:connection-end="#path10314-45" /><rect
           style="fill:none;stroke:#333333;stroke-width:1.00312;stroke-linecap:round;stroke-linejoin:round;stroke-dasharray:none;stroke-dashoffset:27.384;paint-order:stroke fill markers"
           id="rect9986-7-9"
           width="156.99927"
           height="28.709848"
           x="87.197464"
           y="-48.217545"
           ry="11.285419" /><circle
           style="fill:#000000;stroke:#0000ff;stroke-width:1.00312;stroke-linecap:round;stroke-linejoin:round;stroke-dasharray:none;stroke-dashoffset:27.384;paint-order:stroke fill markers"
           id="path10314-36"
           cx="161.80957"
           cy="-30.020435"
           r="2.8476338" /><text
           xml:space="preserve"
           style="font-style:normal;font-variant:normal;font-weight:normal;font-stretch:normal;font-size:16px;line-height:1.25;font-family:sans-serif;-inkscape-font-specification:'sans-serif, Normal';font-variant-ligatures:normal;font-variant-caps:normal;font-variant-numeric:normal;font-variant-east-asian:normal;letter-spacing:0px;word-spacing:0px;fill:#000000;fill-opacity:1;stroke:none;stroke-width:2.00623"
           x="512.88867"
           y="-24.417116"
           id="text11646"><tspan
             sodipodi:role="line"
             id="tspan11644"
             x="512.88867"
             y="-24.417116"
             style="font-style:normal;font-variant:normal;font-weight:normal;font-stretch:normal;font-size:16px;font-family:sans-serif;-inkscape-font-specification:'sans-serif, Normal';font-variant-ligatures:normal;font-variant-caps:normal;font-variant-numeric:normal;font-variant-east-asian:normal;text-align:end;text-anchor:end;stroke-width:2.00623">SUBATOMIC</tspan></text><path
           style="display:inline;fill:none;fill-rule:evenodd;stroke:#000000;stroke-width:1;stroke-linecap:butt;stroke-linejoin:miter;stroke-dasharray:none;stroke-opacity:1;marker-end:url(#Arrow1Mend-4)"
           d="m 407.9361,-30.115669 -243.2789,0.09413"
           id="path11648-6"
           inkscape:connector-type="polyline"
           inkscape:connector-curvature="0"
           inkscape:connection-end="#path10314-36" /><rect
           style="fill:none;stroke:#333333;stroke-width:1.00312;stroke-linecap:round;stroke-linejoin:round;stroke-dasharray:none;stroke-dashoffset:27.384;paint-order:stroke fill markers"
           id="rect9986-7-2"
           width="119.24555"
           height="52.987617"
           x="157.68755"
           y="-93.442856"
           ry="11.285419" /><circle
           style="fill:#000000;stroke:#0000ff;stroke-width:1.00312;stroke-linecap:round;stroke-linejoin:round;stroke-dasharray:none;stroke-dashoffset:27.384;paint-order:stroke fill markers"
           id="path10314-0"
           cx="221.36966"
           cy="-59.236217"
           r="2.8476338" /><text
           xml:space="preserve"
           style="font-style:normal;font-variant:normal;font-weight:normal;font-stretch:normal;font-size:16px;line-height:1.25;font-family:sans-serif;-inkscape-font-specification:'sans-serif, Normal';font-variant-ligatures:normal;font-variant-caps:normal;font-variant-numeric:normal;font-variant-east-asian:normal;letter-spacing:0px;word-spacing:0px;fill:#000000;fill-opacity:1;stroke:none;stroke-width:2.00623"
           x="450.0918"
           y="-53.701992"
           id="text11642"><tspan
             sodipodi:role="line"
             id="tspan11640"
             x="450.0918"
             y="-53.701992"
             style="font-style:normal;font-variant:normal;font-weight:normal;font-stretch:normal;font-size:16px;font-family:sans-serif;-inkscape-font-specification:'sans-serif, Normal';font-variant-ligatures:normal;font-variant-caps:normal;font-variant-numeric:normal;font-variant-east-asian:normal;text-align:center;text-anchor:middle;stroke-width:2.00623">ATOMIC</tspan></text><path
           style="display:inline;fill:none;fill-rule:evenodd;stroke:#000000;stroke-width:1;stroke-linecap:butt;stroke-linejoin:miter;stroke-dasharray:none;stroke-opacity:1;marker-end:url(#Arrow1Mend-5)"
           d="m 408.92741,-59.382506 -184.71013,0.144067"
           id="path11648-3"
           inkscape:connector-type="polyline"
           inkscape:connector-curvature="0"
           inkscape:connection-end="#path10314-0" /><text
           xml:space="preserve"
           style="font-style:normal;font-variant:normal;font-weight:normal;font-stretch:normal;font-size:16px;line-height:1.25;font-family:sans-serif;-inkscape-font-specification:'sans-serif, Normal';font-variant-ligatures:normal;font-variant-caps:normal;font-variant-numeric:normal;font-variant-east-asian:normal;letter-spacing:0px;word-spacing:0px;fill:#808080;fill-opacity:1;stroke:none;stroke-width:2.00623"
           x="18.594685"
           y="-151.42528"
           id="text15053"><tspan
             sodipodi:role="line"
             id="tspan15051"
             x="18.594685"
             y="-151.42528"
             style="font-style:normal;font-variant:normal;font-weight:normal;font-stretch:normal;font-size:16px;font-family:sans-serif;-inkscape-font-specification:'sans-serif, Normal';font-variant-ligatures:normal;font-variant-caps:normal;font-variant-numeric:normal;font-variant-east-asian:normal;fill:#808080;stroke-width:2.00623">Time (s)</tspan></text><text
           xml:space="preserve"
           style="font-style:normal;font-variant:normal;font-weight:normal;font-stretch:normal;font-size:16px;line-height:1.25;font-family:sans-serif;-inkscape-font-specification:'sans-serif, Normal';font-variant-ligatures:normal;font-variant-caps:normal;font-variant-numeric:normal;font-variant-east-asian:normal;letter-spacing:0px;word-spacing:0px;fill:#808080;fill-opacity:1;stroke:none;stroke-width:2.00623"
           x="-75.575089"
           y="313.00171"
           id="text15057"
           transform="rotate(-90)"><tspan
             sodipodi:role="line"
             id="tspan15055"
             x="-75.575089"
             y="313.00171"
             style="font-style:normal;font-variant:normal;font-weight:normal;font-stretch:normal;font-size:16px;font-family:sans-serif;-inkscape-font-specification:'sans-serif, Normal';font-variant-ligatures:normal;font-variant-caps:normal;font-variant-numeric:normal;font-variant-east-asian:normal;fill:#808080;stroke-width:2.00623">Space (cm)</tspan></text><g
           id="g15420"
           transform="matrix(2.0062341,0,0,2.0062341,19.617738,485.33095)"><g
             id="g15410"><path
               style="fill:none;stroke:#000000;stroke-width:1px;stroke-linecap:butt;stroke-linejoin:miter;stroke-opacity:1"
               d="m 174.56016,-328.06276 v 13.86095"
               id="path15305" /><text
               xml:space="preserve"
               style="font-style:normal;font-variant:normal;font-weight:normal;font-stretch:normal;font-size:6.66667px;line-height:1.25;font-family:sans-serif;-inkscape-font-specification:'sans-serif, Normal';font-variant-ligatures:normal;font-variant-caps:normal;font-variant-numeric:normal;font-variant-east-asian:normal;letter-spacing:0px;word-spacing:0px;fill:#000000;fill-opacity:1;stroke:none"
               x="168.1416"
               y="-308.19855"
               id="text14352-5-6"><tspan
                 sodipodi:role="line"
                 id="tspan14350-6-2"
                 x="168.1416"
                 y="-308.19855">1 yr</tspan></text></g><g
             id="g15405"><path
               style="fill:none;stroke:#000000;stroke-width:1px;stroke-linecap:butt;stroke-linejoin:miter;stroke-opacity:1"
               d="m 138.18752,-351.71368 -8.86818,0.15292"
               id="path15307" /><text
               xml:space="preserve"
               style="font-style:normal;font-variant:normal;font-weight:normal;font-stretch:normal;font-size:6.66667px;line-height:1.25;font-family:sans-serif;-inkscape-font-specification:'sans-serif, Normal';font-variant-ligatures:normal;font-variant-caps:normal;font-variant-numeric:normal;font-variant-east-asian:normal;letter-spacing:0px;word-spacing:0px;fill:#000000;fill-opacity:1;stroke:none"
               x="110.63114"
               y="-349.73505"
               id="text14352-5-6-4"><tspan
                 sodipodi:role="line"
                 id="tspan14350-6-2-1"
                 x="110.63114"
                 y="-349.73505">1 Km</tspan></text></g></g></g></g></g></svg>
