<?xml version="1.0" encoding="UTF-8" standalone="no"?>
<!-- Created with Inkscape (http://www.inkscape.org/) -->

<svg
   width="800"
   height="379"
   id="svg2"
   version="1.1"
   inkscape:version="1.2 (1:1.2+202206011327+fc4e4096c5)"
   sodipodi:docname="water_cycle_0.svg"
   xmlns:inkscape="http://www.inkscape.org/namespaces/inkscape"
   xmlns:sodipodi="http://sodipodi.sourceforge.net/DTD/sodipodi-0.dtd"
   xmlns:xlink="http://www.w3.org/1999/xlink"
   xmlns="http://www.w3.org/2000/svg"
   xmlns:svg="http://www.w3.org/2000/svg"
   xmlns:rdf="http://www.w3.org/1999/02/22-rdf-syntax-ns#"
   xmlns:cc="http://creativecommons.org/ns#"
   xmlns:dc="http://purl.org/dc/elements/1.1/">
  <defs
     id="defs4">
    <linearGradient
       id="linearGradient3843">
      <stop
         style="stop-color:#f1f1f1;stop-opacity:1;"
         offset="0"
         id="stop3845" />
      <stop
         style="stop-color:#ffffff;stop-opacity:1;"
         offset="1"
         id="stop3847" />
    </linearGradient>
    <linearGradient
       inkscape:collect="always"
       id="linearGradient3823">
      <stop
         style="stop-color:#828284;stop-opacity:1;"
         offset="0"
         id="stop3825" />
      <stop
         style="stop-color:#828284;stop-opacity:0;"
         offset="1"
         id="stop3827" />
    </linearGradient>
    <linearGradient
       id="linearGradient3777">
      <stop
         style="stop-color:#0098ff;stop-opacity:0;"
         offset="0"
         id="stop3779" />
      <stop
         id="stop3781"
         offset="0.23931459"
         style="stop-color:#7fcbff;stop-opacity:0.49803922;" />
      <stop
         style="stop-color:#ffffff;stop-opacity:0;"
         offset="1"
         id="stop3783" />
    </linearGradient>
    <linearGradient
       id="linearGradient3769">
      <stop
         style="stop-color:#0098ff;stop-opacity:0;"
         offset="0"
         id="stop3771" />
      <stop
         id="stop3773"
         offset="0.23605601"
         style="stop-color:#7fcbff;stop-opacity:0.49803922;" />
      <stop
         style="stop-color:#ffffff;stop-opacity:0;"
         offset="1"
         id="stop3775" />
    </linearGradient>
    <linearGradient
       id="linearGradient3751">
      <stop
         id="stop3753"
         offset="0"
         style="stop-color:#0098ff;stop-opacity:0;" />
      <stop
         style="stop-color:#7fcbff;stop-opacity:0.49803922;"
         offset="0.5"
         id="stop3767" />
      <stop
         id="stop3755"
         offset="1"
         style="stop-color:#ffffff;stop-opacity:0;" />
    </linearGradient>
    <linearGradient
       id="linearGradient4982">
      <stop
         style="stop-color:#89cbf8;stop-opacity:1;"
         offset="0"
         id="stop4984" />
      <stop
         style="stop-color:#ffffff;stop-opacity:1;"
         offset="1"
         id="stop4986" />
    </linearGradient>
    <linearGradient
       id="linearGradient4949">
      <stop
         style="stop-color:#fffa33;stop-opacity:1;"
         offset="0"
         id="stop4951" />
      <stop
         style="stop-color:#ffffff;stop-opacity:0;"
         offset="1"
         id="stop4953" />
    </linearGradient>
    <linearGradient
       id="linearGradient4899">
      <stop
         style="stop-color:#ffffff;stop-opacity:1;"
         offset="0"
         id="stop4901" />
      <stop
         style="stop-color:#ffffff;stop-opacity:0;"
         offset="1"
         id="stop4903" />
    </linearGradient>
    <marker
       inkscape:stockid="Arrow1Mend"
       orient="auto"
       refY="0.0"
       refX="0.0"
       id="Arrow1Mend"
       style="overflow:visible;">
      <path
         id="path3951"
         d="M 0.0,0.0 L 5.0,-5.0 L -12.5,0.0 L 5.0,5.0 L 0.0,0.0 z "
         style="fill-rule:evenodd;stroke:#000000;stroke-width:1.0pt;marker-start:none;"
         transform="scale(0.4) rotate(180) translate(10,0)" />
    </marker>
    <marker
       inkscape:stockid="TriangleOutL"
       orient="auto"
       refY="0.0"
       refX="0.0"
       id="TriangleOutL"
       style="overflow:visible">
      <path
         id="path4085"
         d="M 5.77,0.0 L -2.88,5.0 L -2.88,-5.0 L 5.77,0.0 z "
         style="fill-rule:evenodd;stroke:#000000;stroke-width:1.0pt;marker-start:none"
         transform="scale(0.8)" />
    </marker>
    <inkscape:perspective
       sodipodi:type="inkscape:persp3d"
       inkscape:vp_x="0 : 526.18109 : 1"
       inkscape:vp_y="0 : 1000 : 0"
       inkscape:vp_z="744.09448 : 526.18109 : 1"
       inkscape:persp3d-origin="372.04724 : 350.78739 : 1"
       id="perspective10" />
    <inkscape:perspective
       id="perspective2824"
       inkscape:persp3d-origin="0.5 : 0.33333333 : 1"
       inkscape:vp_z="1 : 0.5 : 1"
       inkscape:vp_y="0 : 1000 : 0"
       inkscape:vp_x="0 : 0.5 : 1"
       sodipodi:type="inkscape:persp3d" />
    <linearGradient
       inkscape:collect="always"
       xlink:href="#linearGradient4899"
       id="linearGradient4909"
       x1="561.64288"
       y1="190.9352"
       x2="600.26263"
       y2="190.9352"
       gradientUnits="userSpaceOnUse" />
    <linearGradient
       inkscape:collect="always"
       xlink:href="#linearGradient4982"
       id="linearGradient6438"
       x1="400.35938"
       y1="147.90625"
       x2="400.35938"
       y2="127.9375"
       gradientUnits="userSpaceOnUse" />
    <linearGradient
       inkscape:collect="always"
       xlink:href="#linearGradient4982"
       id="linearGradient3698"
       x1="209.10938"
       y1="116.6875"
       x2="209.10938"
       y2="99.71875"
       gradientUnits="userSpaceOnUse" />
    <linearGradient
       inkscape:collect="always"
       xlink:href="#linearGradient4982"
       id="linearGradient3700"
       x1="190"
       y1="104.3438"
       x2="190"
       y2="84.34375"
       gradientUnits="userSpaceOnUse" />
    <linearGradient
       inkscape:collect="always"
       xlink:href="#linearGradient4982"
       id="linearGradient3702"
       x1="386.375"
       y1="132.78125"
       x2="386.375"
       y2="114.59375"
       gradientUnits="userSpaceOnUse" />
    <linearGradient
       inkscape:collect="always"
       xlink:href="#linearGradient4982"
       id="linearGradient3704"
       x1="577.40625"
       y1="82.40625"
       x2="577.40625"
       y2="67.40625"
       gradientUnits="userSpaceOnUse"
       gradientTransform="translate(-7.0710676,19.798989)" />
    <linearGradient
       inkscape:collect="always"
       xlink:href="#linearGradient4982"
       id="linearGradient3706"
       x1="595.98438"
       y1="77.5625"
       x2="595.98438"
       y2="36.15625"
       gradientUnits="userSpaceOnUse"
       gradientTransform="translate(-16.970562,20.506096)" />
    <linearGradient
       inkscape:collect="always"
       xlink:href="#linearGradient3823"
       id="linearGradient3829"
       x1="651.60712"
       y1="194.08104"
       x2="638.03571"
       y2="212.92857"
       gradientUnits="userSpaceOnUse" />
    <linearGradient
       inkscape:collect="always"
       xlink:href="#linearGradient3823"
       id="linearGradient3831"
       x1="628.10712"
       y1="226.98424"
       x2="607.85712"
       y2="240.56032"
       gradientUnits="userSpaceOnUse" />
    <linearGradient
       inkscape:collect="always"
       xlink:href="#linearGradient3823"
       id="linearGradient3833"
       x1="588.78125"
       y1="181.53125"
       x2="581.7749"
       y2="206.63081"
       gradientUnits="userSpaceOnUse" />
    <linearGradient
       inkscape:collect="always"
       xlink:href="#linearGradient3823"
       id="linearGradient3835"
       x1="555.28571"
       y1="240.56032"
       x2="534.67859"
       y2="267.21429"
       gradientUnits="userSpaceOnUse" />
    <linearGradient
       inkscape:collect="always"
       xlink:href="#linearGradient3823"
       id="linearGradient3837"
       x1="383.23129"
       y1="226.98424"
       x2="364.82993"
       y2="246.63641"
       gradientUnits="userSpaceOnUse" />
    <linearGradient
       inkscape:collect="always"
       xlink:href="#linearGradient3823"
       id="linearGradient3839"
       x1="383.23129"
       y1="290.42859"
       x2="364.82993"
       y2="313.64285"
       gradientUnits="userSpaceOnUse" />
    <linearGradient
       inkscape:collect="always"
       xlink:href="#linearGradient3823"
       id="linearGradient3841"
       x1="474.1633"
       y1="267.21429"
       x2="448.14285"
       y2="300.39285"
       gradientUnits="userSpaceOnUse" />
    <linearGradient
       inkscape:collect="always"
       xlink:href="#linearGradient3843"
       id="linearGradient3849"
       x1="649.5"
       y1="213.2812"
       x2="692.83301"
       y2="169.3976"
       gradientUnits="userSpaceOnUse" />
    <inkscape:perspective
       id="perspective3786"
       inkscape:persp3d-origin="0.5 : 0.33333333 : 1"
       inkscape:vp_z="1 : 0.5 : 1"
       inkscape:vp_y="0 : 1000 : 0"
       inkscape:vp_x="0 : 0.5 : 1"
       sodipodi:type="inkscape:persp3d" />
    <inkscape:perspective
       id="perspective3786-4"
       inkscape:persp3d-origin="0.5 : 0.33333333 : 1"
       inkscape:vp_z="1 : 0.5 : 1"
       inkscape:vp_y="0 : 1000 : 0"
       inkscape:vp_x="0 : 0.5 : 1"
       sodipodi:type="inkscape:persp3d" />
    <inkscape:perspective
       id="perspective3786-8"
       inkscape:persp3d-origin="0.5 : 0.33333333 : 1"
       inkscape:vp_z="1 : 0.5 : 1"
       inkscape:vp_y="0 : 1000 : 0"
       inkscape:vp_x="0 : 0.5 : 1"
       sodipodi:type="inkscape:persp3d" />
    <inkscape:perspective
       id="perspective3882"
       inkscape:persp3d-origin="0.5 : 0.33333333 : 1"
       inkscape:vp_z="1 : 0.5 : 1"
       inkscape:vp_y="0 : 1000 : 0"
       inkscape:vp_x="0 : 0.5 : 1"
       sodipodi:type="inkscape:persp3d" />
    <inkscape:perspective
       id="perspective3882-0"
       inkscape:persp3d-origin="0.5 : 0.33333333 : 1"
       inkscape:vp_z="1 : 0.5 : 1"
       inkscape:vp_y="0 : 1000 : 0"
       inkscape:vp_x="0 : 0.5 : 1"
       sodipodi:type="inkscape:persp3d" />
    <inkscape:perspective
       id="perspective3975"
       inkscape:persp3d-origin="0.5 : 0.33333333 : 1"
       inkscape:vp_z="1 : 0.5 : 1"
       inkscape:vp_y="0 : 1000 : 0"
       inkscape:vp_x="0 : 0.5 : 1"
       sodipodi:type="inkscape:persp3d" />
    <inkscape:perspective
       id="perspective4010"
       inkscape:persp3d-origin="0.5 : 0.33333333 : 1"
       inkscape:vp_z="1 : 0.5 : 1"
       inkscape:vp_y="0 : 1000 : 0"
       inkscape:vp_x="0 : 0.5 : 1"
       sodipodi:type="inkscape:persp3d" />
    <inkscape:perspective
       id="perspective4010-7"
       inkscape:persp3d-origin="0.5 : 0.33333333 : 1"
       inkscape:vp_z="1 : 0.5 : 1"
       inkscape:vp_y="0 : 1000 : 0"
       inkscape:vp_x="0 : 0.5 : 1"
       sodipodi:type="inkscape:persp3d" />
    <inkscape:perspective
       id="perspective4010-0"
       inkscape:persp3d-origin="0.5 : 0.33333333 : 1"
       inkscape:vp_z="1 : 0.5 : 1"
       inkscape:vp_y="0 : 1000 : 0"
       inkscape:vp_x="0 : 0.5 : 1"
       sodipodi:type="inkscape:persp3d" />
    <inkscape:perspective
       id="perspective4010-5"
       inkscape:persp3d-origin="0.5 : 0.33333333 : 1"
       inkscape:vp_z="1 : 0.5 : 1"
       inkscape:vp_y="0 : 1000 : 0"
       inkscape:vp_x="0 : 0.5 : 1"
       sodipodi:type="inkscape:persp3d" />
    <inkscape:perspective
       id="perspective4010-3"
       inkscape:persp3d-origin="0.5 : 0.33333333 : 1"
       inkscape:vp_z="1 : 0.5 : 1"
       inkscape:vp_y="0 : 1000 : 0"
       inkscape:vp_x="0 : 0.5 : 1"
       sodipodi:type="inkscape:persp3d" />
    <inkscape:perspective
       id="perspective2985"
       inkscape:persp3d-origin="0.5 : 0.33333333 : 1"
       inkscape:vp_z="1 : 0.5 : 1"
       inkscape:vp_y="0 : 1000 : 0"
       inkscape:vp_x="0 : 0.5 : 1"
       sodipodi:type="inkscape:persp3d" />
    <inkscape:perspective
       id="perspective3814"
       inkscape:persp3d-origin="0.5 : 0.33333333 : 1"
       inkscape:vp_z="1 : 0.5 : 1"
       inkscape:vp_y="0 : 1000 : 0"
       inkscape:vp_x="0 : 0.5 : 1"
       sodipodi:type="inkscape:persp3d" />
    <inkscape:perspective
       id="perspective3877"
       inkscape:persp3d-origin="0.5 : 0.33333333 : 1"
       inkscape:vp_z="1 : 0.5 : 1"
       inkscape:vp_y="0 : 1000 : 0"
       inkscape:vp_x="0 : 0.5 : 1"
       sodipodi:type="inkscape:persp3d" />
    <inkscape:perspective
       id="perspective3928"
       inkscape:persp3d-origin="0.5 : 0.33333333 : 1"
       inkscape:vp_z="1 : 0.5 : 1"
       inkscape:vp_y="0 : 1000 : 0"
       inkscape:vp_x="0 : 0.5 : 1"
       sodipodi:type="inkscape:persp3d" />
    <linearGradient
       inkscape:collect="always"
       xlink:href="#linearGradient3823"
       id="linearGradient3969"
       gradientUnits="userSpaceOnUse"
       x1="651.60712"
       y1="194.08104"
       x2="638.03571"
       y2="212.92857" />
  </defs>
  <sodipodi:namedview
     id="base"
     pagecolor="#ffffff"
     bordercolor="#666666"
     borderopacity="1.0"
     inkscape:pageopacity="0.0"
     inkscape:pageshadow="2"
     inkscape:zoom="1"
     inkscape:cx="315"
     inkscape:cy="81"
     inkscape:document-units="px"
     inkscape:current-layer="layer2"
     showgrid="false"
     inkscape:window-width="1920"
     inkscape:window-height="1053"
     inkscape:window-x="0"
     inkscape:window-y="27"
     inkscape:window-maximized="1"
     inkscape:showpageshadow="0"
     inkscape:pagecheckerboard="0"
     inkscape:deskcolor="#d1d1d1" />
  <metadata
     id="metadata7">
    <rdf:RDF>
      <cc:Work
         rdf:about="">
        <dc:format>image/svg+xml</dc:format>
        <dc:type
           rdf:resource="http://purl.org/dc/dcmitype/StillImage" />
      </cc:Work>
    </rdf:RDF>
  </metadata>
  <g
     inkscape:groupmode="layer"
     id="layer2"
     inkscape:label="Layer">
    <rect
       style="color:#000000;display:none;overflow:visible;visibility:visible;fill:#ffffff;fill-opacity:1;fill-rule:nonzero;stroke:none;stroke-width:3;marker:none;enable-background:accumulate"
       id="rect3851"
       width="800"
       height="379"
       x="0"
       y="0"
       sodipodi:insensitive="true" />
    <path
       style="fill:#000080;stroke:none;stroke-width:1px;stroke-linecap:butt;stroke-linejoin:miter;stroke-opacity:1;color:#000000;fill-opacity:1;fill-rule:nonzero;marker:none;visibility:visible;display:inline;overflow:visible;enable-background:accumulate"
       d="M 67.34375 215.625 L 67.15625 232.21875 L 75.1875 248.28125 C 75.177448 248.92387 75.136818 249.55073 75.21875 250.21875 C 75.346946 251.26397 75.581988 252.33247 75.875 253.40625 C 76.461025 255.55381 77.290477 257.73424 78.09375 259.75 C 78.897023 261.76576 79.662586 263.63158 80.09375 265.1875 C 81.074407 266.17148 81.872749 267.20746 82.53125 268.28125 C 83.189751 269.35504 83.700486 270.44824 84.09375 271.59375 C 84.487014 272.73926 84.752555 273.92584 84.9375 275.125 C 85.122445 276.32416 85.216456 277.54653 85.25 278.78125 C 85.317089 281.25069 85.165753 283.77803 84.96875 286.28125 C 84.771747 288.78447 84.536997 291.26388 84.53125 293.65625 C 84.702599 294.89233 85.014479 295.98993 85.4375 297 C 85.860521 298.01007 86.405725 298.92117 87.03125 299.75 C 87.656775 300.57883 88.377389 301.33888 89.15625 302.03125 C 89.935111 302.72362 90.773222 303.36808 91.65625 303.96875 C 93.422306 305.17009 95.331036 306.20932 97.21875 307.3125 C 99.106464 308.41568 100.97773 309.57431 102.59375 310.9375 C 103.93301 312.97578 104.8944 315.13286 105.65625 317.375 C 106.4181 319.61714 106.98578 321.93909 107.46875 324.28125 C 107.95172 326.62341 108.34111 328.97417 108.84375 331.3125 C 109.34639 333.65083 109.96041 335.9881 110.78125 338.21875 C 111.33823 340.20669 112.09092 342.16086 113.0625 344.03125 C 114.03408 345.90164 115.21869 347.68515 116.59375 349.25 C 117.96881 350.81485 119.54507 352.17869 121.3125 353.25 C 122.19622 353.78565 123.11403 354.24798 124.09375 354.625 C 124.30226 354.70524 124.53718 354.74009 124.75 354.8125 L 124.75 347.21875 L 124.75 347.1875 L 125 330.0625 L 67.34375 215.625 z "
       id="path2973" />
    <path
       style="fill:#803300;stroke:none;stroke-width:1px;stroke-linecap:butt;stroke-linejoin:miter;stroke-opacity:1"
       d="M 67.125 232.21875 L 67.125 262.21875 L 124.1875 379.75 L 124.75 378.21875 L 124.75 354.8125 C 124.53718 354.74009 124.30226 354.70524 124.09375 354.625 C 123.11403 354.24798 122.19622 353.78565 121.3125 353.25 C 119.54507 352.17869 117.96881 350.81485 116.59375 349.25 C 115.21869 347.68515 114.03408 345.90164 113.0625 344.03125 C 112.09092 342.16086 111.33823 340.20669 110.78125 338.21875 C 109.96041 335.9881 109.34639 333.65083 108.84375 331.3125 C 108.34111 328.97417 107.95172 326.62341 107.46875 324.28125 C 106.98578 321.93909 106.4181 319.61714 105.65625 317.375 C 104.8944 315.13286 103.93301 312.97578 102.59375 310.9375 C 100.97773 309.57431 99.106464 308.41568 97.21875 307.3125 C 95.331036 306.20932 93.422306 305.17009 91.65625 303.96875 C 90.773222 303.36808 89.935111 302.72362 89.15625 302.03125 C 88.377389 301.33888 87.656775 300.57883 87.03125 299.75 C 86.405725 298.92117 85.860521 298.01007 85.4375 297 C 85.014479 295.98993 84.702599 294.89233 84.53125 293.65625 C 84.536997 291.26388 84.771747 288.78447 84.96875 286.28125 C 85.165753 283.77803 85.317089 281.25069 85.25 278.78125 C 85.216456 277.54653 85.122445 276.32416 84.9375 275.125 C 84.752555 273.92584 84.487014 272.73926 84.09375 271.59375 C 83.700486 270.44824 83.189751 269.35504 82.53125 268.28125 C 81.872749 267.20746 81.074407 266.17148 80.09375 265.1875 C 79.662586 263.63158 78.897023 261.76576 78.09375 259.75 C 77.290477 257.73424 76.461025 255.55381 75.875 253.40625 C 75.581988 252.33247 75.346946 251.26397 75.21875 250.21875 C 75.136818 249.55073 75.177448 248.92387 75.1875 248.28125 L 67.125 232.21875 z "
       id="path2833" />
    <path
       style="fill:#01bdff;stroke:none;stroke-width:1px;stroke-linecap:butt;stroke-linejoin:miter;stroke-opacity:1;fill-opacity:1"
       d="m 67.680221,215.86036 153.543189,0 c 0,0 6.56599,12.62691 7.07107,16.66752 0.50507,4.04061 2.52538,11.11168 5.05076,13.13198 2.52538,2.02031 17.17259,16.16244 17.17259,16.16244 0,0 9.59645,11.11168 15.65737,15.65737 6.06091,4.54569 27.77919,27.77919 30.30457,32.32488 2.52538,4.54569 16.16244,20.20305 16.16244,20.20305 l -187.88837,0 -57.073619,-114.14724 z"
       id="path2847" />
    <path
       style="fill:#4848ff;stroke:none;stroke-width:1px;stroke-linecap:butt;stroke-linejoin:miter;stroke-opacity:1;fill-opacity:1"
       d="M 124.96875 330 L 125 330.0625 L 124.8125 347.1875 L 124.75 347.1875 L 124.75 354.8125 C 125.53716 355.08032 126.3418 355.31534 127.1875 355.46875 C 129.5988 355.68052 132.00564 355.67368 134.40625 355.5 C 136.80686 355.32632 139.20175 354.98553 141.59375 354.59375 C 146.37775 353.8102 151.14414 352.77677 155.90625 352.125 C 162.79945 351.55251 169.70886 351.00379 176.625 350.59375 C 183.54114 350.18371 190.44827 349.90389 197.375 349.84375 C 202.47653 349.37741 207.60477 349.02607 212.71875 348.75 C 216.88575 348.52505 221.04789 348.38488 225.21875 348.25 L 277.78125 348.6875 C 277.78125 348.6875 280.71429 348.28571 285 346.5 C 289.28571 344.71429 297.1384 339.34821 299.28125 337.5625 C 301.42411 335.77678 306.42857 334.01339 310 331.15625 C 310.54094 330.7235 311.07814 330.34933 311.59375 330 L 124.96875 330 z "
       id="path2849" />
    <path
       style="fill:#b27147;stroke:none;stroke-width:1px;stroke-linecap:butt;stroke-linejoin:miter;stroke-opacity:1;fill-opacity:1;color:#000000;fill-rule:nonzero;marker:none;visibility:visible;display:inline;overflow:visible;enable-background:accumulate"
       d="M 666.1875 213.0625 C 665.96683 213.0655 665.75446 213.07155 665.53125 213.09375 C 663.74553 213.27232 660.54465 224.01339 658.9375 226.15625 C 657.33036 228.2991 654.63393 235.41964 651.0625 240.0625 C 647.49107 244.70536 650.35714 245.08482 647.5 243.65625 C 644.64286 242.22768 645.36607 235.07589 641.4375 232.21875 C 637.50893 229.3616 639.28125 227.92857 636.78125 229 C 634.28125 230.07143 624.64732 251.1384 623.21875 253.28125 C 621.79018 255.42411 619.29465 264.71429 616.4375 266.5 C 613.58036 268.28571 613.57589 263.29017 610.71875 262.21875 C 607.8616 261.14732 602.5 259.71875 602.5 259.71875 C 602.5 259.71875 598.20536 257.91964 596.0625 257.5625 C 593.91964 257.20536 594.29911 257.5848 589.65625 258.65625 C 585.01339 259.72768 586.79911 262.55804 582.15625 264.34375 C 577.51339 266.12947 580.37053 264.35715 574.65625 264 C 568.94196 263.64286 568.56696 265.77232 564.28125 266.84375 C 559.99553 267.91518 559.65625 271.1384 557.15625 273.28125 C 554.65625 275.42411 555.34375 279.34375 552.84375 281.84375 C 550.34375 284.34375 544.29465 286.50446 533.9375 289.71875 C 523.58036 292.93303 518.9241 296.15625 516.78125 296.15625 C 514.63839 296.15625 501.41964 297.58036 493.5625 297.9375 C 485.70536 298.29464 473.57589 302.20983 470.71875 303.28125 C 467.8616 304.35268 463.94196 307.58482 462.15625 308.65625 C 460.37053 309.72768 452.86607 310.78125 448.9375 310.78125 C 445.00893 310.78125 422.5 310.08036 415 310.4375 C 407.5 310.79464 391.0625 311.1384 388.5625 310.78125 C 386.0625 310.42411 384.62947 309.00446 382.84375 309.71875 C 381.05804 310.43303 370.72768 313.98661 367.15625 314.34375 C 363.58482 314.7009 341.07143 319.36607 332.5 320.4375 C 323.92857 321.50893 325.00446 321.8616 320.71875 324.71875 C 316.43303 327.57589 313.57143 328.2991 310 331.15625 C 306.42857 334.01339 301.42411 335.77678 299.28125 337.5625 C 297.1384 339.34821 289.28571 344.71429 285 346.5 C 280.71429 348.28571 277.78125 348.6875 277.78125 348.6875 L 226.5625 348.1875 C 221.94226 348.33137 217.33277 348.50092 212.71875 348.75 C 207.60477 349.02607 202.47653 349.37741 197.375 349.84375 C 190.44827 349.90385 183.54114 350.18371 176.625 350.59375 C 169.70886 351.00379 162.79945 351.55251 155.90625 352.125 C 151.14414 352.77677 146.37775 353.8102 141.59375 354.59375 C 139.20175 354.98553 136.80686 355.32632 134.40625 355.5 C 132.00564 355.67368 129.5988 355.68047 127.1875 355.46875 C 126.3418 355.31534 125.53716 355.08032 124.75 354.8125 L 124.75 380.5 L 126.46875 380.5 C 126.8653 380.11338 127.37184 379.71547 127.625 379.34375 C 130.32869 378.30358 132.59219 377.57391 134.90625 376.9375 C 137.22031 376.30109 139.57945 375.78181 142.46875 375.125 C 144.93964 374.42215 147.53222 374.01559 150.1875 373.8125 C 152.84278 373.60941 155.56404 373.59472 158.3125 373.625 C 161.06096 373.6553 163.84334 373.72155 166.59375 373.71875 C 169.34416 373.71575 172.0576 373.64585 174.71875 373.34375 C 178.26868 373.60398 181.7506 373.54722 185.15625 373.34375 C 188.5619 373.14028 191.89876 372.79686 195.25 372.40625 C 198.60124 372.01564 201.95705 371.58245 205.34375 371.28125 C 208.73045 370.98005 212.14422 370.81022 215.65625 370.875 C 218.72331 370.40717 221.91832 370.09592 225.15625 369.875 C 228.39418 369.65408 231.69193 369.50603 235 369.375 C 238.30807 369.24397 241.62879 369.13564 244.90625 368.9375 C 248.18371 368.73936 251.41639 368.45351 254.5625 368.03125 C 257.47001 367.43601 260.51904 367.10288 263.625 366.875 C 266.73096 366.64712 269.87512 366.53134 273 366.375 C 276.12488 366.21866 279.22321 366.03687 282.1875 365.65625 C 285.15179 365.27563 288.00082 364.71321 290.625 363.8125 C 292.70037 362.25419 294.87477 360.86409 297.21875 359.6875 C 299.56273 358.51091 302.05915 357.52514 304.75 356.71875 C 306.50267 355.85757 308.33878 355.17579 310.21875 354.59375 C 312.09872 354.01171 314.04394 353.54258 316.03125 353.15625 C 320.00588 352.3836 324.15328 351.92784 328.4375 351.4375 C 330.39404 349.86424 332.26744 348.4922 334.34375 347.5 C 335.38191 347.0039 336.47122 346.60777 337.65625 346.3125 C 338.84128 346.01723 340.1214 345.83865 341.53125 345.78125 C 343.98092 345.1973 346.49583 344.72378 349.0625 344.34375 C 351.62917 343.96372 354.24648 343.65395 356.90625 343.4375 C 362.22579 343.0046 367.70141 342.86434 373.25 342.84375 C 378.79859 342.82315 384.41352 342.93095 390 343 C 395.58648 343.0691 401.16054 343.10147 406.59375 342.9375 C 417.4887 342.79355 428.39615 342.42511 439.34375 342.09375 C 450.29135 341.76239 461.26818 341.47608 472.34375 341.53125 C 475.40549 341.0319 478.48629 340.83078 481.375 340.46875 C 482.81936 340.28774 484.19797 340.08602 485.53125 339.75 C 486.86453 339.41398 488.13551 338.96101 489.3125 338.34375 C 492.43933 338.01382 495.66215 337.92084 498.90625 337.875 C 502.15035 337.8292 505.4243 337.8397 508.625 337.6875 C 511.8257 337.53531 514.97211 337.21147 517.96875 336.5625 C 519.46707 336.23801 520.92657 335.83439 522.34375 335.3125 C 523.76093 334.79061 525.12154 334.17434 526.4375 333.40625 C 530.17976 332.75189 534.19606 332.66233 537.96875 332.125 C 539.8551 331.85634 541.68156 331.47303 543.375 330.84375 C 544.22172 330.52911 545.03907 330.14103 545.8125 329.6875 C 546.58593 329.23397 547.31657 328.71866 548 328.09375 C 552.95553 325.55586 557.36909 323.85815 561.4375 321.71875 C 564.80119 320.87918 568.39205 319.46463 572.125 318.125 C 573.99147 317.45518 575.87006 316.79385 577.8125 316.25 C 579.75494 315.70615 581.7425 315.2818 583.75 315.03125 C 585.91049 313.76014 588.3881 312.51497 590.96875 311.59375 C 592.25908 311.13314 593.59571 310.77236 594.90625 310.5 C 596.21679 310.22764 597.50705 310.04817 598.78125 310.03125 C 601.59753 309.28293 604.60294 308.89516 607.40625 308.21875 C 608.8079 307.88055 610.1532 307.4558 611.40625 306.90625 C 612.6593 306.3567 613.83622 305.66378 614.84375 304.75 C 616.27714 304.07644 617.8657 303.40454 619.4375 302.65625 C 621.0093 301.90796 622.53684 301.0906 623.875 300.125 C 624.54408 299.6422 625.17784 299.12636 625.71875 298.5625 C 626.25966 297.99864 626.72752 297.3815 627.09375 296.71875 C 627.45998 296.056 627.72995 295.34196 627.875 294.5625 C 628.02005 293.78304 628.02895 292.94524 627.90625 292.03125 C 628.1819 291.34851 628.51687 290.72557 628.90625 290.1875 C 629.29563 289.64943 629.7391 289.19975 630.28125 288.8125 C 630.8234 288.42525 631.45353 288.10527 632.1875 287.875 C 632.92147 287.64473 633.75392 287.50464 634.71875 287.4375 C 634.90488 286.7345 635.22349 286.08668 635.59375 285.5 C 635.96401 284.91332 636.39722 284.38537 636.84375 283.84375 C 637.73681 282.76051 638.66773 281.67427 639.21875 280.34375 C 640.08283 280.11968 640.68115 279.77 641.15625 279.34375 C 641.63135 278.9175 641.99111 278.43226 642.34375 277.96875 C 642.69639 277.50524 643.06578 277.05458 643.5625 276.71875 C 644.05922 276.38292 644.68643 276.16823 645.59375 276.125 C 646.41109 275.80846 647.44601 275.80629 648.40625 275.6875 C 649.0958 275.16891 649.81478 274.70003 650.46875 274.375 C 651.34652 273.8227 652.12545 273.13337 652.8125 272.375 C 653.49955 271.61663 654.09592 270.78278 654.5625 269.875 C 655.02908 268.96722 655.37739 268.00052 655.59375 267 C 655.81011 265.99948 655.87612 264.94286 655.8125 263.90625 C 655.99319 262.23165 656.29668 260.59658 656.6875 258.96875 C 657.07832 257.34092 657.55707 255.72659 658.0625 254.125 C 659.07336 250.92182 660.2289 247.75265 661.125 244.53125 C 661.23457 243.84412 661.59498 243.0619 662.125 242.34375 C 662.65502 241.6256 663.33739 240.96398 664.0625 240.5 C 664.78761 240.03602 665.55517 239.79963 666.25 239.875 C 666.59741 239.9127 666.95241 240.02401 667.25 240.25 C 667.54759 240.47599 667.81166 240.80005 668.03125 241.25 C 668.46608 243.29437 668.52858 245.57972 668.96875 247.71875 C 669.18883 248.78827 669.51373 249.83868 670 250.78125 C 670.48627 251.72382 671.13347 252.56603 672.0625 253.28125 C 672.53046 253.46676 672.97314 253.54898 673.375 253.53125 C 673.77686 253.51355 674.14422 253.38758 674.5 253.21875 C 675.21156 252.8811 675.85268 252.31673 676.5 251.6875 C 677.14732 251.05827 677.81929 250.3787 678.5625 249.875 C 678.9341 249.62315 679.3244 249.42351 679.75 249.28125 C 680.01072 249.19405 680.30671 249.18645 680.59375 249.15625 C 680.597 249.11505 680.58945 249.07252 680.59375 249.03125 C 681.16874 249.02498 681.74337 249.02196 682.3125 248.96875 C 683.16103 248.88942 683.98982 248.72313 684.78125 248.34375 C 686.14289 247.85084 687.34273 247.08038 688.4375 246.15625 C 689.53227 245.23212 690.5176 244.17496 691.5 243.15625 C 691.99952 242.3189 692.11734 241.36451 692.25 240.40625 C 692.38266 239.44799 692.54853 238.47087 693.09375 237.625 C 693.31485 236.74455 693.6783 235.9244 694.125 235.15625 C 694.5717 234.3881 695.10925 233.68383 695.6875 233 C 696.02858 232.64774 696.59371 231.64964 696.84375 230.875 C 696.96877 230.48768 697.02603 230.13877 696.90625 229.96875 C 696.89808 229.95715 696.85343 229.9788 696.84375 229.96875 C 695.6355 231.50021 692.6633 235.23763 689.53125 239.125 C 688.83762 239.9859 688.28337 240.65702 687.625 241.46875 C 687.54345 241.30928 687.51427 241.11273 687.40625 240.96875 C 687.02122 240.45552 686.54997 240.00772 686.03125 239.5625 C 685.51253 239.11728 684.93965 238.689 684.4375 238.21875 C 683.93535 237.7485 683.49158 237.24458 683.15625 236.65625 C 681.55947 235.16133 679.72175 233.89366 677.96875 232.625 C 677.19138 232.2663 676.55807 231.75725 676 231.1875 C 675.44193 230.61775 674.96276 229.97051 674.53125 229.28125 C 673.66824 227.90273 672.97566 226.36974 672.0625 225.0625 C 671.85196 224.8803 671.70625 224.67097 671.53125 224.46875 C 671.45855 224.16498 671.41599 224.06176 669.46875 215.59375 C 669.15624 213.5625 667.73217 213.04297 666.1875 213.0625 z "
       id="path3917" />
    <path
       style="fill:#74ec74;stroke:none;stroke-width:1px;stroke-linecap:butt;stroke-linejoin:miter;stroke-opacity:1;fill-opacity:1"
       d="M 632.8125 161.34375 C 627.52546 164.88401 621.63924 168.48974 618.5625 171.15625 C 613.20536 175.7991 615.35714 176.14732 610 177.21875 C 604.64286 178.29017 593.21875 180.44196 585.71875 181.15625 C 578.21875 181.87053 578.58036 183.64732 573.9375 184.71875 C 569.29465 185.79017 567.12947 192.2009 565.34375 194.34375 C 563.55804 196.48661 561.79911 194.7009 549.65625 196.84375 C 537.51339 198.98661 537.13393 198.2991 526.0625 198.65625 C 514.99107 199.01339 496.4241 196.50893 489.28125 197.9375 C 482.13839 199.36607 479.63393 202.21875 473.5625 204.71875 C 467.49107 207.21875 458.9375 211.49107 456.4375 212.5625 C 453.9375 213.63393 442.5 215.4375 442.5 215.4375 C 442.5 215.4375 442.12947 211.49107 435.34375 210.0625 C 428.55804 208.63393 422.14286 208.28125 417.5 208.28125 C 412.85714 208.28125 403.55804 210.78125 397.84375 210.78125 L 332.5 210.78125 C 325 210.78125 318.20536 210.79465 313.5625 210.4375 C 308.91964 210.08036 286.06697 206.5 284.28125 206.5 C 282.49554 206.5 268.21875 210.0625 268.21875 210.0625 L 221.78125 215.78125 L 221.59375 216.625 C 222.59389 218.57194 227.82265 228.86246 228.28125 232.53125 C 228.78632 236.57186 230.81837 243.63595 233.34375 245.65625 C 235.86913 247.67656 250.53125 261.8125 250.53125 261.8125 C 250.53125 261.8125 260.12658 272.92306 266.1875 277.46875 C 272.24841 282.01444 293.94337 305.26681 296.46875 309.8125 C 298.88071 314.15404 311.12572 328.27212 312.25 329.5625 C 314.88485 327.89323 317.36059 326.95752 320.71875 324.71875 C 325.00446 321.8616 323.92857 321.50893 332.5 320.4375 C 341.07143 319.36607 363.58482 314.7009 367.15625 314.34375 C 370.72768 313.98661 381.05804 310.43303 382.84375 309.71875 C 384.62947 309.00446 386.0625 310.42411 388.5625 310.78125 C 391.0625 311.1384 407.5 310.79465 415 310.4375 C 422.5 310.08036 445.00893 310.78125 448.9375 310.78125 C 452.86607 310.78125 460.37053 309.72768 462.15625 308.65625 C 463.94196 307.58482 467.8616 304.35268 470.71875 303.28125 C 473.57589 302.20983 485.70536 298.29464 493.5625 297.9375 C 501.41964 297.58036 514.63839 296.15625 516.78125 296.15625 C 518.9241 296.15625 523.58036 292.93303 533.9375 289.71875 C 544.29465 286.50446 550.34375 284.34375 552.84375 281.84375 C 555.34375 279.34375 554.65625 275.42411 557.15625 273.28125 C 559.65625 271.1384 559.99553 267.91518 564.28125 266.84375 C 568.56696 265.77232 568.94196 263.64286 574.65625 264 C 580.37053 264.35714 577.51339 266.12947 582.15625 264.34375 C 586.79911 262.55804 585.01339 259.72768 589.65625 258.65625 C 594.29911 257.58482 593.91964 257.20536 596.0625 257.5625 C 598.20536 257.91964 602.5 259.71875 602.5 259.71875 C 602.5 259.71875 607.8616 261.14732 610.71875 262.21875 C 613.57589 263.29017 613.58036 268.28571 616.4375 266.5 C 619.29465 264.71429 621.79018 255.42411 623.21875 253.28125 C 624.64732 251.1384 634.28125 230.07143 636.78125 229 C 639.28125 227.92857 637.50893 229.3616 641.4375 232.21875 C 645.36607 235.07589 644.64286 242.22768 647.5 243.65625 C 650.35714 245.08482 647.491 244.70536 651.0625 240.0625 C 654.63393 235.41964 657.33036 228.2991 658.9375 226.15625 C 660.54465 224.01339 663.74553 213.27232 665.53125 213.09375 C 667.31696 212.91518 669.1116 213.27232 669.46875 215.59375 C 669.58372 216.34105 670.66404 220.82632 671.53125 224.46875 C 671.70625 224.67097 671.85196 224.8803 672.0625 225.0625 C 672.97566 226.36974 673.66824 227.90273 674.53125 229.28125 C 674.96276 229.97051 675.44193 230.61775 676 231.1875 C 676.55807 231.75725 677.19138 232.2663 677.96875 232.625 C 679.72175 233.89366 681.55947 235.16133 683.15625 236.65625 C 683.49158 237.24458 683.93535 237.7485 684.4375 238.21875 C 684.93965 238.689 685.51253 239.11728 686.03125 239.5625 C 686.54997 240.00772 687.02122 240.45552 687.40625 240.96875 C 687.51995 241.12031 687.53145 241.33726 687.625 241.5 C 691.45137 236.8146 695.80641 231.49789 697.28125 229.625 C 696.84744 229.51866 696.43663 229.32705 696 229.3125 C 692.91868 228.63684 689.93595 227.64923 687.03125 226.46875 C 684.12655 225.28827 681.30147 223.91103 678.5 222.5 L 678.46875 222.5625 C 677.34442 221.9244 676.07931 221.08725 675 219.34375 C 672.67857 215.59375 667.33036 211.84821 667.6875 207.5625 C 668.04465 203.27678 666.59375 195.95983 665.34375 193.28125 C 664.09375 190.60268 660.1741 187.37947 656.78125 186.84375 C 653.38839 186.30804 648.75 180.59375 648.75 180.59375 C 648.75 180.59375 643.91964 173.62947 639.8125 169.34375 C 635.95271 165.31614 634.33137 163.34586 632.8125 161.34375 z "
       id="path3869" />
    <path
       style="font-size:medium;font-style:normal;font-variant:normal;font-weight:normal;font-stretch:normal;text-indent:0;text-align:start;text-decoration:none;line-height:normal;letter-spacing:normal;word-spacing:normal;text-transform:none;direction:ltr;block-progression:tb;writing-mode:lr-tb;text-anchor:start;color:#000000;fill:#00bdff;fill-opacity:1;stroke:none;stroke-width:1;marker:none;visibility:visible;display:inline;overflow:visible;enable-background:accumulate;font-family:AR PL UMing CN;-inkscape-font-specification:AR PL UMing CN"
       d="m 545.24195,225.50567 -3.74195,0.96308 0.25,0.21875 0.0625,0.0625 c 2.48044,3.39489 5.55911,6.19297 8.28125,9.25 4.84462,5.87278 9.32453,12.80605 16.75,16.09375 0.0218,0.01 0.0406,0.0216 0.0625,0.0312 2.18957,1.51456 4.45068,3.26357 7.96875,2.84883 1.67172,-0.43213 3.15154,-1.26649 3.78569,-2.65245 0.63415,-1.38596 0.46309,-3.84642 0.65181,-5.16513 l 0,-0.0312 c 0.11158,-1.37687 -0.29556,-3.25738 -0.21875,-4.71875 0.0384,-0.73068 0.20706,-1.30073 0.5,-1.65625 0.276,-0.33497 0.73414,-0.52487 1.53125,-0.5 4.34863,2.66032 8.02978,6.45919 12.75,8.90625 l 0,0.0312 0.0312,0 c 1.82218,0.67081 3.61506,1.8696 5.5,2.84375 1.88494,0.97415 3.89477,1.74311 6.1875,1.46875 1.09361,-0.13886 1.88933,-0.60681 2.3125,-1.28125 0.42317,-0.67444 0.45727,-1.48319 0.3125,-2.28125 -0.28687,-1.58142 -1.28681,-3.20695 -2.3125,-4.1875 -0.016,-0.0172 -0.0158,-0.0143 -0.0312,-0.0312 -0.63861,-0.70466 -0.78971,-1.25038 -0.75,-1.5625 0.0407,-0.31966 0.24266,-0.55695 0.6875,-0.75 0.88968,-0.3861 2.51921,-0.26685 3.4375,0.4375 l 0.0625,0.0312 0.0625,0.0312 c 1.19389,0.44258 2.6691,1.21363 4.1875,1.5625 1.5184,0.34887 3.18171,0.22672 4.4375,-1.15625 l 0.15625,-0.1875 -0.0312,-0.21875 c -0.10144,-0.87345 0.0312,-1.2801 0.15625,-1.4375 0.12506,-0.1574 0.33581,-0.21444 0.75,-0.1875 0.82839,0.0539 2.1561,0.58785 3.40625,0.5625 l 0.0312,0 0.0312,-0.0312 c 0.43901,-0.0833 0.77835,-0.41128 0.90625,-0.75 0.1279,-0.33872 0.14737,-0.66647 0.15625,-0.96875 0.009,-0.30228 0.0179,-0.59348 0.0625,-0.78125 0.0446,-0.18777 0.0788,-0.25151 0.1875,-0.3125 0.86099,-0.48319 2.22086,-0.68961 3.46875,-0.625 0.01,8.3e-4 0.0213,-4.5e-4 0.0312,0 0.32763,0.0148 0.67915,-0.16931 0.84375,-0.40625 0.16958,-0.24412 0.2344,-0.50804 0.28125,-0.78125 0.0937,-0.54643 0.0766,-1.18381 0.125,-1.71875 0.0484,-0.53494 0.19968,-0.92513 0.25,-0.96875 0.0252,-0.0218 0.0282,-0.0231 0.15625,0 0.12805,0.0231 0.38053,0.11095 0.71875,0.34375 l 0.5625,-0.8125 c -0.40652,-0.27981 -0.77604,-0.46834 -1.125,-0.53125 -0.34896,-0.0629 -0.72173,0.0359 -0.96875,0.25 -0.49404,0.42826 -0.53976,1.02831 -0.59375,1.625 -0.054,0.59669 -0.0551,1.21742 -0.125,1.625 -0.0349,0.20379 -0.10313,0.34352 -0.125,0.375 -1.39642,-0.0737 -2.88018,0.12155 -4,0.75 -0.3905,0.21915 -0.57376,0.62151 -0.65625,0.96875 -0.0825,0.34724 -0.0852,0.67926 -0.0937,0.96875 -0.009,0.28949 -0.0516,0.54455 -0.0937,0.65625 -0.037,0.0981 -0.031,0.10633 -0.125,0.125 -0.008,-1e-5 -0.0227,9e-5 -0.0312,0 -0.90409,-0.01 -2.12269,-0.49124 -3.21875,-0.5625 -0.56353,-0.0367 -1.20192,0.0693 -1.59375,0.5625 -0.32456,0.40848 -0.31668,1.06809 -0.28125,1.8125 -0.98283,1.03973 -2.09331,1.14541 -3.40625,0.84375 -1.28609,-0.29549 -2.68811,-0.99129 -3.9375,-1.46875 -0.0455,-0.0349 -0.10941,-0.0297 -0.15625,-0.0625 -1.27485,-0.89162 -3.02248,-1.04628 -4.28125,-0.5 -0.65251,0.28318 -1.21877,0.82581 -1.3125,1.5625 -0.0937,0.73669 0.27158,1.55417 1.0625,2.40625 0.85607,0.80823 1.82927,2.37049 2.0625,3.65625 0.11662,0.64288 0.0567,1.20448 -0.1875,1.59375 -0.24425,0.38927 -0.70006,0.69903 -1.59375,0.8125 -2.0054,0.23998 -3.77734,-0.43626 -5.59375,-1.375 -1.79632,-0.92835 -3.61026,-2.11321 -5.5625,-2.84375 -0.0205,-0.0106 -0.0421,-0.0206 -0.0625,-0.0312 -4.54421,-2.37313 -7.01083,-6.09923 -11.55044,-8.84248 l -0.59878,-0.44131 -0.94575,-0.31567 c -1.10703,-0.0711 -2.71794,0.0686 -3.22636,0.6856 -0.50842,0.61704 -0.67484,2.014 -0.71875,2.84946 -0.0872,1.6598 0.1362,3.56777 0.0925,4.65625 -0.15798,0.74582 0.38009,1.83821 -0.36866,3.74741 -0.55767,1.21881 -0.40413,1.80764 -1.74048,2.15308 l -0.53628,0.31567 c -2.53592,0.72104 -3.00986,0.31916 -5.16719,-1.17671 l -1.23076,-0.78882 -2.20907,-1.89404 c -7.11904,-3.12405 -8.30708,-7.74415 -13.21764,-13.69685 l -0.59941,-0.63135 c -2.78993,-3.13316 -4.17693,-5.67446 -6.58451,-8.98957 l -0.0312,-0.0312 -0.0316,-0.0625 -0.34375,-0.28125 5e-5,-5e-5 z"
       id="path2884"
       sodipodi:nodetypes="cccccsccsccssccccscsssssscccscccsscccsssssssssssccsssscsssssssscscssscsscssscccsscccccccccccccc" />
    <path
       style="font-size:medium;font-style:normal;font-variant:normal;font-weight:normal;font-stretch:normal;text-indent:0;text-align:start;text-decoration:none;line-height:normal;letter-spacing:normal;word-spacing:normal;text-transform:none;direction:ltr;block-progression:tb;writing-mode:lr-tb;text-anchor:start;color:#000000;fill:#00bdff;fill-opacity:1;stroke:none;stroke-width:1px;marker:none;visibility:visible;display:inline;overflow:visible;enable-background:accumulate;font-family:AR PL UMing CN;-inkscape-font-specification:AR PL UMing CN"
       d="m 598.78125,186.03125 c -0.69146,-0.0108 -1.28358,0.10857 -1.78125,0.4375 -0.49769,0.32894 -0.7805,0.86968 -0.875,1.4375 -0.0945,0.56782 -0.0376,1.17311 0.125,1.84375 0.32518,1.34127 1.04422,2.9066 1.84375,4.5625 1.59906,3.31179 3.51847,7.01599 3.59375,9.34375 0.0801,2.47637 -0.4965,4.44374 -2.28125,5.6875 -1.78475,1.24376 -4.29015,1.07582 -9.3125,0.37946 l -1.43299,-0.17857 c -2.60488,0.2039 -5.41657,-0.89647 -9.09375,-2.29018 -3.67718,-1.39371 -7.50321,-3.67171 -11.25446,-5.05357 -3.79796,-1.39907 -9.80092,-1.91284 -13.13393,-1.41071 -1.6665,0.25107 -3.48983,1.66534 -4.48214,2.58036 -0.99231,0.91502 -0.8485,3.05553 -0.59375,4.64732 0.16349,1.02159 1.88407,2.4208 3.11607,3.25 1.232,0.8292 2.8436,1.5873 4.59375,2.50446 3.5003,1.83432 6.46969,3.46949 8.92857,5.86607 2.511,2.44738 4.27035,4.56248 4.27679,6.45536 0.003,0.94644 0.0169,1.69772 -0.89286,2.47321 -0.89916,0.76641 -2.49046,0.0864 -4.65179,0.59822 -14.06907,-4.67418 -7.77344,-1.9814 -22.14285,-4.8125 l -20.09827,-3.95982 c -8.12412,0.87712 -18.24678,-1.87672 -27.62053,-2.68304 -4.68687,-0.40316 -10.45194,0.10094 -14.53125,1.35268 -4.07931,1.25174 -7.30769,3.58919 -10.06117,7.89229 l -2.04593,3.59422 c -7.04151,10.19094 -19.46728,14.53133 -32.75442,16.68082 l 1.71871,2.98882 c 13.4206,-2.17109 29.44375,-7.53338 35.1875,-21.40625 2.62659,-4.06744 5.97947,-6.34549 9.84375,-7.53125 3.88881,-1.19328 8.31506,-1.27262 12.9375,-0.875 9.22288,0.79335 19.21506,3.48378 27.625,2.59375 0.0194,0.006 0.0431,-0.006 0.0625,0 14.16775,4.59714 29.29011,3.9391 43.125,8.59375 l 0.125,0.0312 0.15625,-0.0312 c 2.29905,-0.53583 3.93943,-1.25687 5.03125,-2.1875 1.09182,-0.93063 1.59789,-2.09472 1.59375,-3.3125 -0.008,-2.43557 -1.88115,-5.00922 -4.46875,-7.53125 -2.63972,-2.57283 -6.75581,-4.66888 -10.25,-6.5 -1.7471,-0.91556 -3.3404,-1.75078 -4.5,-2.53125 -1.1596,-0.78047 -1.8056,-1.53511 -1.875,-1.96875 -0.21234,-1.32675 0.13235,-2.22388 0.90625,-2.9375 0.7739,-0.71362 2.01958,-1.20505 3.5625,-1.4375 3.08584,-0.46489 7.31556,0.12301 10.96875,1.46875 3.6999,1.36294 7.62158,3.15173 11.34375,4.5625 3.68584,1.397 7.13783,2.41993 10.03125,2.21875 0.0285,-0.002 0.0653,0.002 0.0937,0 5.08501,0.69082 8.4368,0.17833 10.53125,-1.28125 2.1098,-1.47028 2.80491,-3.86698 2.71875,-6.53125 -0.091,-2.81287 -2.13482,-6.46954 -3.71875,-9.75 -0.79196,-1.64023 -1.46234,-3.18849 -1.75,-4.375 -0.14383,-0.59326 -0.18534,-1.07492 -0.125,-1.4375 0.0603,-0.36258 0.20593,-0.5763 0.46875,-0.75 0.52567,-0.34743 1.71067,-0.38053 3.28125,0.0625 1.57058,0.44303 3.4772,1.29068 5.5,2.375 4.0456,2.16864 8.48833,5.31415 11.5,8.0625 6.0538,5.5245 11.16734,12.51986 14.9375,19.28125 l 0.875,-0.46875 c -3.8135,-6.83913 -8.96658,-13.94252 -15.125,-19.5625 -3.09444,-2.82389 -7.59023,-5.97441 -11.71875,-8.1875 -2.06426,-1.10655 -4.03528,-1.96263 -5.71875,-2.4375 -0.84173,-0.23744 -1.62104,-0.39546 -2.3125,-0.40625 l 0,1e-4 z"
       id="path3882"
       sodipodi:nodetypes="cssssssccsssssssssscscsscccccsscscccssssssssssscsssssssssccssscc" />
    <path
       style="fill:#01bdff;stroke:none;stroke-width:1px;stroke-linecap:butt;stroke-linejoin:miter;stroke-opacity:1;fill-opacity:1"
       d="M 473.40625 258.46875 C 470.63812 258.53392 468.03126 260.40721 465.15625 260.03125 C 462.05226 259.29518 458.85534 259.43116 455.71875 259.9375 C 453.58621 260.55141 450.96541 260.60745 449.5 262.53125 C 447.72275 265.40213 450.51089 268.55948 452.8125 270.125 C 453.33977 270.1841 453.87749 270.22225 454.40625 270.25 C 454.84393 271.06073 455.57527 271.75258 456.6875 272.125 C 463.01037 273.70839 468.30068 277.92527 474.53125 279.8125 C 477.81121 280.50255 482.19696 281.88581 484.6875 278.78125 C 484.52524 275.12256 488.3994 272.5824 491.8125 274.53125 C 494.89139 277.0153 502.42839 279.96223 506.03125 281.34375 C 510.28171 281.85791 508.16959 285.74456 504.0625 287.625 C 499.38403 289.49112 505.89258 292.08238 508.21875 291.5 C 511.40727 291.2949 512.88489 294.46516 515.0625 296.25 C 515.83232 296.19365 516.45825 296.15625 516.78125 296.15625 C 518.9241 296.15625 523.58036 292.93303 533.9375 289.71875 C 535.24792 289.31207 536.2941 288.96902 537.46875 288.59375 C 537.17142 287.34871 536.16453 286.12138 534.53125 285.59375 C 531.91974 282.67587 528.26118 281.06453 524.84375 279.3125 C 516.75787 274.00654 507.55362 270.9364 498.65625 267.3125 C 491.90247 263.64006 484.0956 263.017 476.96875 260.375 C 476.68576 259.69895 476.18644 259.11662 475.34375 258.75 C 474.68182 258.5227 474.04505 258.45371 473.40625 258.46875 z "
       id="path3892" />
    <path
       style="font-size:medium;font-style:normal;font-variant:normal;font-weight:normal;font-stretch:normal;text-indent:0;text-align:start;text-decoration:none;line-height:normal;letter-spacing:normal;word-spacing:normal;text-transform:none;direction:ltr;block-progression:tb;writing-mode:lr-tb;text-anchor:start;color:#000000;fill:#00bdff;fill-opacity:1;stroke:none;stroke-width:1.50000000000000000;marker:none;visibility:visible;display:inline;overflow:visible;enable-background:accumulate;font-family:AR PL UMing CN;-inkscape-font-specification:AR PL UMing CN"
       d="m 434.76206,250.30679 -1.60581,2.00571 c 1.87297,0.5256 3.78811,0.79993 5.6875,0.96875 0.0203,0.002 0.0422,-0.002 0.0625,0 3.24974,0.45509 6.42483,0.0322 9.4375,0.25 0.0204,0.001 0.0422,-0.002 0.0625,0 2.06139,0.34176 4.09904,1.17047 6.21875,1.875 0.3552,0.26322 0.55017,0.55017 0.65625,0.9375 0.1125,0.41076 0.11474,0.93619 0.0625,1.53125 -0.10447,1.19011 -0.47571,2.57523 -0.25,3.9375 l 1.46875,-0.25 c -0.14573,-0.87953 0.162,-2.2041 0.28125,-3.5625 0.0596,-0.6792 0.0627,-1.37711 -0.125,-2.0625 -0.18771,-0.68539 -0.59636,-1.34074 -1.28125,-1.8125 l -0.0937,-0.0625 -0.0937,-0.0312 c -2.12593,-0.6994 -4.32778,-1.61897 -6.6875,-2 l -0.0312,0 -0.0312,0 c -3.27056,-0.24654 -2.38532,0.15065 -5.39689,-0.28188 l -1.8621,-0.12627 c -1.86286,-0.16332 -2.50121,-0.25196 -4.2692,-0.7481 l -2.20995,-0.56826 z"
       id="path3899"
       sodipodi:nodetypes="ccsssscssccsscccccccccc" />
    <path
       style="fill:#00bdff;stroke:none;fill-opacity:1"
       d="m 436.2348,247.22422 2.04514,2.9182 -2.90419,0.94701 c 0,0 -3.85121,2.27285 -5.80838,2.96733 -1.95717,0.69448 -14.079,4.23001 -16.54125,4.60882 -2.46224,0.3788 -16.28871,5.68211 -23.86485,6.43972 -7.57615,0.75761 -17.42513,1.76777 -23.48605,0.75761 -6.06091,-1.01015 -10.35406,-5.05076 -17.67767,-4.79822 -7.3236,0.25254 -15.40482,1.76777 -22.22335,2.27284 -6.81853,0.50508 -15.90991,2.27285 -23.48605,3.03046 -7.57614,0.75762 -18.18275,0.75762 -25.50635,1.51523 -7.32361,0.75761 -18.68782,1.26269 -21.46574,1.26269 -2.77792,0 -6.566,-1.26269 -6.566,-1.26269 l -0.25253,-2.52538 c 0,0 3.03045,-1.26269 9.09137,-1.26269 6.06091,0 11.36422,-0.25254 15.65736,-0.25254 4.29315,0 7.97136,-0.38778 12.01197,-0.64032 4.04061,-0.25254 20.96067,-0.50508 25.75889,-1.01015 4.79822,-0.50508 14.50454,-0.87491 17.535,-1.63253 3.03045,-0.75761 9.34391,-1.76776 13.63706,-2.0203 4.29314,-0.25254 7.57614,-1.01015 11.11167,-0.50508 3.53554,0.50508 8.5863,3.283 12.12183,3.78807 3.53554,0.50508 8.83884,0.75762 11.36422,0.50508 2.52538,-0.25254 21.97082,-3.28299 26.01143,-4.79822 4.04061,-1.51523 8.80881,-3.17202 12.11239,-3.52916 3.30357,-0.35714 15.50863,-4.59103 16.76899,-5.04828 1.26037,-0.45726 4.04532,-1.57829 4.55509,-1.7275 z"
       id="path3912"
       sodipodi:nodetypes="cccsssssssssccssssssssssszc" />
    <path
       style="fill:url(#linearGradient3841);fill-opacity:1;stroke:none;stroke-width:1px;stroke-linecap:butt;stroke-linejoin:miter;stroke-opacity:1"
       d="M 442.5 267.21875 C 442.5 267.21875 443.04911 268.4509 443.40625 269.34375 C 443.76339 270.23661 444.29465 272.20536 443.9375 275.0625 C 443.58036 277.91964 441.78572 280.60268 441.25 284.53125 C 440.71429 288.45983 439.83036 289.34821 442.6875 293.8125 C 445.54465 298.27678 446.97322 297.57143 453.9375 302.75 C 456.81592 304.89037 459.37293 307.08663 461.4375 308.96875 C 461.72505 308.86194 461.97585 308.76449 462.15625 308.65625 C 463.94196 307.58482 467.8616 304.35268 470.71875 303.28125 C 473.27827 302.32144 483.26437 299.07801 490.96875 298.15625 C 489.62675 297.15087 488.06025 296.15241 486.59375 295.59375 C 482.84375 294.16518 473.56696 293.29464 466.78125 291.6875 C 459.99553 290.08036 458.57589 287.75 453.21875 282.75 C 447.8616 277.75 448.40179 277.04017 446.4375 272.21875 C 444.47322 267.39732 442.5 267.21875 442.5 267.21875 z "
       id="path3914" />
    <path
       style="fill:url(#linearGradient3839);fill-opacity:1;stroke:none;stroke-width:1px;stroke-linecap:butt;stroke-linejoin:miter;stroke-opacity:1"
       d="M 350.4375 291.40625 C 348.11607 291.40625 346.4375 291.84375 346.4375 291.84375 C 346.4375 291.84375 349.99554 295.79017 354.28125 297.21875 C 358.56697 298.64732 361.41964 306.50893 363.5625 310.4375 C 364.28872 311.76891 364.53927 313.30033 364.53125 314.75 C 365.70216 314.5493 366.65084 314.39429 367.15625 314.34375 C 369.97083 314.06229 376.84278 311.82892 380.5625 310.53125 C 378.89915 308.18269 376.79242 305.60575 375.34375 305.0625 C 372.48661 303.99107 363.21875 297.22768 358.21875 293.65625 C 355.71875 291.87054 352.75893 291.40625 350.4375 291.40625 z "
       id="path3916" />
    <path
       style="fill:url(#linearGradient3837);fill-opacity:1;stroke:none;stroke-width:1px;stroke-linecap:butt;stroke-linejoin:miter;stroke-opacity:1"
       d="m 385.35714,253.28571 c 0,0 -6.42857,2.5 -14.28571,-1.07142 -7.85714,-3.57143 -10.35714,-6.07143 -11.78572,-10.35715 -1.42857,-4.28571 -5.35714,-7.5 -5.35714,-7.5 0,0 1.07143,-5 4.64286,-5.35714 3.57143,-0.35714 6.42857,-3.57143 7.85714,-1.07143 1.42857,2.5 -1.78571,7.14286 1.42857,8.57143 3.21429,1.42857 6.78572,7.5 9.28572,8.21429 2.5,0.71428 9.28571,8.92857 8.21428,8.57142 z"
       id="path3918" />
    <path
       style="fill:url(#linearGradient3835);fill-opacity:1;stroke:none;stroke-width:1px;stroke-linecap:butt;stroke-linejoin:miter;stroke-opacity:1"
       d="M 517.65625 234.3125 C 517.09821 234.32366 516.78125 234.34375 516.78125 234.34375 C 516.78125 234.34375 522.85267 241.85268 524.28125 245.78125 C 525.70982 249.70983 526.08482 254.3616 529.65625 259.71875 C 533.22768 265.07589 533.2009 263.28571 540.34375 264 C 547.48661 264.71429 548.5625 267.22322 553.5625 270.4375 C 554.91667 271.30804 555.88071 272.53347 556.5625 273.875 C 556.73733 273.66134 556.93648 273.46962 557.15625 273.28125 C 559.65625 271.1384 559.99553 267.91518 564.28125 266.84375 C 567.49553 266.04018 568.50167 264.65472 571.21875 264.15625 C 568.17218 262.47954 563.521 260.68603 561.78125 260.4375 C 559.28125 260.08036 556.06696 258.63393 551.78125 257.5625 C 547.49553 256.49107 547.15625 255.41518 544.65625 251.84375 C 542.15625 248.27232 543.91964 245.05804 541.0625 241.84375 C 538.20536 238.62947 533.21429 236.86607 527.5 235.4375 C 523.21429 234.36607 519.33036 234.27902 517.65625 234.3125 z "
       id="path3920" />
    <path
       style="fill:url(#linearGradient3833);fill-opacity:1;fill-rule:nonzero;stroke:none;stroke-width:1px;stroke-linecap:butt;stroke-linejoin:miter;stroke-opacity:1"
       d="m 583,181.53125 c -4.74541,0.84108 -5.07791,2.26798 -9.0625,3.1875 -4.64285,1.07142 -6.80803,7.48215 -8.59375,9.625 -0.45965,0.55158 -0.92884,0.83501 -1.5625,1 1.65106,2.01313 4.48065,4.84795 8.1875,6.15625 6.07143,2.14286 14.11607,3.93303 18.9375,4.46875 4.82143,0.53571 8.20535,1.08035 8.5625,0.1875 0.35714,-0.89286 0.89732,-3.03572 -1.78125,-3.75 -2.67857,-0.71429 -4.4866,-1.43303 -8.59375,-4.46875 -4.10714,-3.03571 -7.85714,-6.25 -8.75,-6.25 -0.89285,0 -1.41072,-0.55803 -0.875,-2.34375 0.46278,-1.54262 2.79076,-5.58051 3.53125,-7.8125 z"
       id="path3922" />
    <path
       style="fill:url(#linearGradient3831);fill-opacity:1;stroke:none;stroke-width:1px;stroke-linecap:butt;stroke-linejoin:miter;stroke-opacity:1"
       d="M 618.5625 212.9375 L 607.84375 220.4375 C 607.84375 220.4375 615.71429 227.93303 616.25 229.71875 C 616.78572 231.50446 617.3125 234.1875 617.3125 237.9375 C 617.3125 241.6875 615.53125 243.46875 615.53125 243.46875 L 616.59375 247.03125 L 624.125 251.59375 C 626.81386 246.38599 633.72597 231.81401 636.34375 229.34375 L 625.90625 230.25 L 618.5625 212.9375 z "
       id="path3924" />
    <path
       style="fill:url(#linearGradient3969);fill-opacity:1;stroke:none;stroke-width:1px;stroke-linecap:butt;stroke-linejoin:miter;stroke-opacity:1"
       d="M 622.84375 191.84375 C 622.84375 191.84375 627.6741 195.95536 629.28125 197.5625 C 630.88839 199.16964 643.57143 213.11607 646.25 216.6875 C 648.92857 220.25893 648.38393 219.71875 646.0625 220.96875 C 643.74107 222.21875 641.4241 218.99554 640.53125 220.78125 C 639.63839 222.56697 641.0625 223.27232 643.5625 225.59375 C 645.49132 227.3848 650.46737 233.6835 653.09375 237.03125 C 655.66594 232.76115 657.65114 227.8714 658.9375 226.15625 C 659.64063 225.21875 660.65749 222.59323 661.71875 219.96875 L 658.5625 208.8125 L 650 204.71875 L 649.8125 200.4375 L 641.78125 200.25 C 641.78125 200.25 641.59375 195.42411 637.84375 194.53125 C 634.09375 193.6384 622.84375 191.84375 622.84375 191.84375 z "
       id="path3926" />
    <path
       style="fill:#c8b7b7;stroke:none;stroke-width:1px;stroke-linecap:butt;stroke-linejoin:miter;stroke-opacity:1;fill-opacity:1;color:#000000;fill-rule:nonzero;marker:none;visibility:visible;display:inline;overflow:visible;enable-background:accumulate"
       d="M 649.5 146.40625 C 646.67732 147.95807 645.94196 149.58333 642.15625 154 C 640.33192 156.12838 636.73113 158.71979 632.8125 161.34375 C 634.33137 163.34586 635.95271 165.31614 639.8125 169.34375 C 643.91964 173.62947 648.75 180.59375 648.75 180.59375 C 648.75 180.59375 653.38839 186.30804 656.78125 186.84375 C 660.1741 187.37947 664.09375 190.60268 665.34375 193.28125 C 666.59375 195.95983 668.04465 203.27678 667.6875 207.5625 C 667.33036 211.84821 672.67857 215.59375 675 219.34375 C 676.08422 221.09518 677.34067 221.92353 678.46875 222.5625 L 678.5 222.5 C 681.30147 223.91103 684.12655 225.28827 687.03125 226.46875 C 689.93595 227.64923 692.91868 228.63684 696 229.3125 C 696.43663 229.32705 696.84744 229.51866 697.28125 229.625 C 697.31558 229.58141 697.4702 229.38168 697.5 229.34375 C 698.91263 227.54587 706.52572 218.80828 711.375 213.25 L 709.09375 209.1875 L 701.59375 209 L 699.28125 202.03125 L 688.9375 201.15625 L 683.21875 196.5 L 682.15625 189.34375 L 677.3125 182.21875 C 677.3125 182.21875 667.33036 174.00446 665.1875 172.21875 C 663.04465 170.43303 659.45982 167.04464 659.28125 164.1875 C 659.10267 161.33036 659.45982 156.85268 656.78125 154.53125 C 654.9803 152.97043 651.59768 148.95424 649.5 146.40625 z "
       id="path3928" />
    <path
       style="fill:#fafafa;stroke:none;stroke-width:1px;stroke-linecap:butt;stroke-linejoin:miter;stroke-opacity:1;fill-opacity:1"
       d="M 646.375 197.4375 L 640.5625 200.84375 L 647.625 204.625 L 656.71875 210.5625 L 660.6875 222.53125 C 661.16337 221.37821 661.64943 220.11084 662.15625 218.875 C 662.20601 218.75408 662.26269 218.6512 662.3125 218.53125 C 662.57169 217.90471 662.83771 217.32202 663.09375 216.75 C 663.35945 216.15743 663.58891 215.61118 663.84375 215.125 C 663.88616 215.04357 663.92675 214.98392 663.96875 214.90625 C 664.09812 214.66705 664.21909 214.44945 664.34375 214.25 C 664.36129 214.22189 664.38881 214.21474 664.40625 214.1875 C 664.54441 213.97088 664.68172 213.78249 664.8125 213.625 L 664.8125 213.59375 C 665.06795 213.29056 665.31269 213.11561 665.53125 213.09375 C 665.75446 213.07155 665.96683 213.0655 666.1875 213.0625 C 667.51763 213.04568 668.76272 213.44006 669.28125 214.84375 L 669.3125 214.8125 L 668.09375 212.4375 L 665.71875 211.125 L 665.6875 210.3125 L 662.53125 204.75 L 656.21875 204.375 L 652.6875 197.6875 L 646.375 197.4375 z "
       id="path3930" />
    <path
       style="fill:url(#linearGradient3849);stroke:#000000;stroke-width:0.1;stroke-linecap:butt;stroke-linejoin:miter;stroke-opacity:1;fill-opacity:1;stroke-miterlimit:4;stroke-dasharray:none"
       d="m 650.9375,145.75 c -0.089,-0.003 -0.15737,0.003 -0.21875,0.0312 -0.45292,0.20587 -0.8484,0.4212 -1.21875,0.625 2.09768,2.54799 5.4803,6.56418 7.28125,8.125 2.67857,2.32143 2.32142,6.79911 2.5,9.65625 0.17857,2.85714 3.7634,6.24553 5.90625,8.03125 2.14286,1.78571 12.125,10 12.125,10 l 4.84375,7.125 1.0625,7.15625 5.71875,4.65625 10.34375,0.875 2.3125,6.96875 7.5,0.1875 2.28125,4.09375 c 1.53481,-1.77098 3.48586,-4.03633 4,-4.625 l 1.41016,-1.61328 c 0,0 -3.84536,-4.91802 -10.50016,-9.54889 -4.11757,-2.86529 -10.88793,-9.10516 -16.12757,-8.94909 0.0104,-4.84393 -8.94859,-14.29193 -13.94332,-16.57347 -9.6305,-4.39912 -6.18623,-10.80449 -12.62229,-16.56008 -6.43607,-5.7556 -11.25247,-9.61142 -12.65432,-9.66144 l 0,5e-5 z"
       id="path3932"
       sodipodi:nodetypes="cscsssccccccccccscsscc" />
    <path
       style="color:#000000;fill:url(#linearGradient3700);fill-opacity:1;fill-rule:evenodd;stroke:none;stroke-width:10;marker:none;visibility:visible;display:inline;overflow:visible;enable-background:accumulate"
       d="m 203.84375,84.34375 c -8.13634,0 -14.75,4.184142 -14.75,9.3125 0,0.474301 0.0787,0.919831 0.1875,1.375 -4.22335,-0.969126 -10.0392,-1.5625 -16.4375,-1.5625 -12.91952,0 -23.375,2.42952 -23.375,5.4375 0,3.00798 10.45548,5.4375 23.375,5.4375 9.92336,0 18.38167,-1.43845 21.78125,-3.46875 2.52448,1.279 5.72776,2.0625 9.21875,2.0625 0.28599,0 0.56179,-0.0211 0.84375,-0.0312 2.68606,0.8952 6.7208,1.4375 11.21875,1.4375 8.08703,0 14.625,-1.82544 14.625,-4.09375 0,-2.066243 -5.44947,-3.774254 -12.53125,-4.0625 0.36591,-0.809811 0.5625,-1.647454 0.5625,-2.53125 0,-5.128358 -6.58241,-9.3125 -14.71875,-9.3125 z"
       id="path4807" />
    <path
       style="color:#000000;fill:url(#linearGradient3698);fill-opacity:1;fill-rule:evenodd;stroke:none;stroke-width:10;marker:none;visibility:visible;display:inline;overflow:visible;enable-background:accumulate"
       d="m 197.84375,99.71875 c -13.01992,0 -23.99343,2.50913 -27.53125,5.9375 -6.80621,0.25153 -12.09375,2.01117 -12.09375,4.15625 0,2.31762 6.15608,4.1875 13.75,4.1875 1.75976,0 3.42213,-0.12864 4.96875,-0.3125 5.24395,1.61087 12.64662,2.625 20.90625,2.625 8.72805,0 16.53982,-1.10163 21.8125,-2.875 3.67144,1.94816 10.71275,3.25 18.8125,3.25 C 250.35273,116.6875 260,113.84484 260,110.34375 260,106.84266 250.35273,104 238.46875,104 c -5.05931,0 -9.70104,0.51404 -13.375,1.375 -3.82806,-3.28711 -14.57861,-5.65625 -27.25,-5.65625 z"
       id="path4800" />
    <path
       style="color:#000000;fill:url(#linearGradient3702);fill-opacity:1;fill-rule:evenodd;stroke:none;stroke-width:10;marker:none;visibility:visible;display:inline;overflow:visible;enable-background:accumulate"
       d="m 378.3125,114.59375 c -12.41359,0 -22.67449,3.43117 -24.28125,7.875 -5.97831,0.31772 -10.59375,2.32085 -10.59375,4.75 0,2.64999 5.48556,4.8125 12.25,4.8125 2.97762,0 5.72095,-0.43293 7.84375,-1.125 4.10894,1.15608 9.22742,1.875 14.78125,1.875 9.35763,0 17.46868,-1.95017 21.59375,-4.8125 3.07812,1.08272 7.58786,1.78125 12.625,1.78125 9.27495,0 16.78125,-2.3283 16.78125,-5.1875 0,-2.8592 -7.5063,-5.15625 -16.78125,-5.15625 -4.27115,0 -8.16143,0.47168 -11.125,1.28125 -3.33717,-3.54857 -12.39423,-6.09375 -23.09375,-6.09375 z"
       id="path4821" />
    <path
       style="color:#000000;fill:url(#linearGradient6438);fill-opacity:1.0;fill-rule:evenodd;stroke:none;stroke-width:10;marker:none;visibility:visible;display:inline;overflow:visible;enable-background:accumulate"
       d="m 381.1875,127.9375 c -9.06574,0 -16.4375,3.74114 -16.4375,8.34375 0,4.60261 7.37176,8.3125 16.4375,8.3125 1.97066,0 3.84316,-0.14552 5.59375,-0.46875 1.79749,2.22772 5.69278,3.78125 10.1875,3.78125 5.61386,0 10.22514,-2.41969 11.0625,-5.5625 2.62471,0.46986 5.59668,0.75 8.75,0.75 10.59994,0 19.1875,-2.99147 19.1875,-6.6875 0,-3.69603 -8.58756,-6.6875 -19.1875,-6.6875 -8.99742,0 -16.54737,2.1494 -18.625,5.0625 -0.28272,-0.0177 -0.55516,-0.026 -0.84375,-0.0312 -1.41047,-3.87479 -8.08458,-6.8125 -16.125,-6.8125 z"
       id="path4814" />
    <path
       style="color:#000000;fill:url(#linearGradient3706);fill-opacity:1;fill-rule:evenodd;stroke:none;stroke-width:10;marker:none;visibility:visible;display:inline;overflow:visible;enable-background:accumulate"
       d="m 579.27944,56.662346 c -5.72009,0 -10.34375,3.87307 -10.34375,8.65625 0,0.803122 0.0991,1.57451 0.34375,2.3125 -9.34756,0.651552 -16.59375,5.300112 -16.59375,10.96875 0,0.113705 0.0256,0.23087 0.0312,0.34375 -1.76043,-0.201608 -3.65592,-0.34375 -5.59375,-0.34375 -10.45396,0 -18.90625,3.16692 -18.90625,7.0625 0,3.89558 8.45229,7.0625 18.90625,7.0625 7.44213,0 13.87627,-1.609834 16.96875,-3.9375 1.52287,0.384478 3.15217,0.640892 4.84375,0.78125 1.92292,4.686085 8.80481,8.15625 17.03125,8.15625 4.3275,0 8.27986,-0.970459 11.34375,-2.5625 3.00347,1.735255 8.63322,2.90625 15.09375,2.90625 9.61567,0 17.40625,-2.576026 17.40625,-5.78125 0,-3.113875 -7.35766,-5.670187 -16.59375,-5.8125 1.55393,-1.435347 2.5,-3.274903 2.5,-5.28125 0,-4.585936 -4.89029,-8.28125 -10.90625,-8.28125 -0.5799,0 -1.13211,0.02721 -1.6875,0.09375 -0.68045,-3.691838 -5.26576,-6.53125 -10.8125,-6.53125 -0.97406,0 -1.91403,0.116116 -2.8125,0.28125 0.0938,-0.468459 0.125,-0.946766 0.125,-1.4375 0,-4.78318 -4.62366,-8.65625 -10.34375,-8.65625 z"
       id="path4835" />
    <path
       style="color:#000000;fill:url(#linearGradient3704);fill-opacity:1;fill-rule:evenodd;stroke:none;stroke-width:10;marker:none;visibility:visible;display:inline;overflow:visible;enable-background:accumulate"
       d="m 563.27268,87.205239 c -7.75655,0 -14.5461,1.34856 -18.40625,3.375 -6.30857,0.0525 -11.40625,2.360359 -11.40625,5.1875 0,2.860046 5.21455,5.187501 11.625,5.187501 2.02777,0 3.93494,-0.21726 5.59375,-0.625 3.56158,0.84211 7.88799,1.3125 12.59375,1.3125 4.80424,0 9.24183,-0.50051 12.84375,-1.375 3.26826,1.17773 7.98584,1.9375 13.25,1.9375 9.86223,0 17.84375,-2.607277 17.84375,-5.812501 0,-3.205224 -7.98152,-5.8125 -17.84375,-5.8125 -2.43127,0 -4.76251,0.182765 -6.875,0.46875 -3.66548,-2.280364 -10.88896,-3.84375 -19.21875,-3.84375 z"
       id="path4828" />
    <path
       style="fill:none;stroke:#6cc0f7;stroke-width:3;stroke-linecap:butt;stroke-linejoin:miter;stroke-miterlimit:4;stroke-opacity:1;stroke-dasharray:12, 3;stroke-dashoffset:0"
       d="M 555.42893,106.65613 525.64322,210.01328"
       id="path4850"
       sodipodi:nodetypes="cc" />
    <path
       style="fill:#ac9393;stroke:none;stroke-width:1px;stroke-linecap:butt;stroke-linejoin:miter;stroke-opacity:1;fill-opacity:1"
       d="M 716.78125 207.03125 C 716.78125 207.03125 699.30804 226.84375 697.34375 229.34375 C 697.28095 229.42367 696.92628 229.86414 696.84375 229.96875 C 696.85343 229.9788 696.89808 229.95715 696.90625 229.96875 C 697.02603 230.13877 696.96877 230.48768 696.84375 230.875 C 696.59371 231.64964 696.02858 232.64774 695.6875 233 C 695.10925 233.68383 694.5717 234.3881 694.125 235.15625 C 693.6783 235.9244 693.31485 236.74455 693.09375 237.625 C 692.54853 238.47087 692.38266 239.44799 692.25 240.40625 C 692.11734 241.36451 691.99952 242.3189 691.5 243.15625 C 690.5176 244.17496 689.53227 245.23212 688.4375 246.15625 C 687.34273 247.08038 686.14289 247.85084 684.78125 248.34375 C 683.98982 248.72313 683.16103 248.88942 682.3125 248.96875 C 681.74337 249.02196 681.16874 249.02498 680.59375 249.03125 C 680.5901 249.0726 680.59715 249.11496 680.59375 249.15625 C 680.30671 249.18645 680.01072 249.19405 679.75 249.28125 C 679.3244 249.42351 678.9341 249.62315 678.5625 249.875 C 677.81929 250.3787 677.14732 251.05827 676.5 251.6875 C 675.85268 252.31673 675.21156 252.8811 674.5 253.21875 C 674.14422 253.38758 673.77686 253.51352 673.375 253.53125 C 672.97314 253.54895 672.53046 253.46675 672.0625 253.28125 C 671.13347 252.56603 670.48627 251.72382 670 250.78125 C 669.51373 249.83868 669.18883 248.78827 668.96875 247.71875 C 668.52858 245.57972 668.46608 243.29437 668.03125 241.25 C 667.81166 240.80005 667.54759 240.47599 667.25 240.25 C 666.95241 240.02401 666.59741 239.91268 666.25 239.875 C 665.55517 239.7996 664.78761 240.03602 664.0625 240.5 C 663.33739 240.96398 662.65502 241.6256 662.125 242.34375 C 661.59498 243.0619 661.23457 243.84412 661.125 244.53125 C 660.2289 247.75265 659.07336 250.92182 658.0625 254.125 C 657.55707 255.72659 657.07832 257.34092 656.6875 258.96875 C 656.29668 260.59658 655.99319 262.23165 655.8125 263.90625 C 655.8761 264.94286 655.8105 265.99948 655.59375 267 C 655.37739 268.00052 655.02908 268.96722 654.5625 269.875 C 654.09592 270.78278 653.49955 271.61663 652.8125 272.375 C 652.12545 273.13337 651.34652 273.8227 650.46875 274.375 C 649.92532 274.64509 649.32902 275.02277 648.75 275.4375 C 647.61632 275.54666 646.54215 275.7577 645.59375 276.125 C 644.68643 276.1682 644.05922 276.38292 643.5625 276.71875 C 643.06578 277.05458 642.69639 277.50524 642.34375 277.96875 C 641.99111 278.43226 641.63135 278.9175 641.15625 279.34375 C 640.68115 279.77 640.08283 280.11968 639.21875 280.34375 C 638.66773 281.67427 637.73681 282.76051 636.84375 283.84375 C 636.39722 284.38537 635.96401 284.91332 635.59375 285.5 C 635.22349 286.08668 634.90488 286.7345 634.71875 287.4375 C 633.75392 287.5046 632.92147 287.64473 632.1875 287.875 C 631.45353 288.10527 630.8234 288.42525 630.28125 288.8125 C 629.7391 289.19975 629.29563 289.64943 628.90625 290.1875 C 628.51687 290.72557 628.1819 291.34851 627.90625 292.03125 C 628.0289 292.94524 628.02 293.78304 627.875 294.5625 C 627.72995 295.34196 627.45998 296.056 627.09375 296.71875 C 626.72752 297.3815 626.25966 297.99864 625.71875 298.5625 C 625.17784 299.12636 624.54408 299.6422 623.875 300.125 C 622.53684 301.0906 621.0093 301.90796 619.4375 302.65625 C 617.8657 303.40454 616.27714 304.07644 614.84375 304.75 C 613.83622 305.66378 612.6593 306.3567 611.40625 306.90625 C 610.1532 307.4558 608.8079 307.88055 607.40625 308.21875 C 604.60294 308.89516 601.59753 309.28293 598.78125 310.03125 C 597.50705 310.04815 596.21679 310.22764 594.90625 310.5 C 593.59571 310.77236 592.25908 311.13314 590.96875 311.59375 C 588.3881 312.51497 585.91049 313.76014 583.75 315.03125 C 581.7425 315.2818 579.75494 315.70615 577.8125 316.25 C 575.87006 316.79385 573.99147 317.45518 572.125 318.125 C 568.39205 319.46463 564.80119 320.87918 561.4375 321.71875 C 557.36909 323.85815 552.95553 325.55586 548 328.09375 C 547.31657 328.71866 546.58593 329.23397 545.8125 329.6875 C 545.03907 330.14103 544.22172 330.52911 543.375 330.84375 C 541.68156 331.47303 539.8551 331.85634 537.96875 332.125 C 534.19606 332.66233 530.17976 332.75189 526.4375 333.40625 C 525.12154 334.17434 523.76093 334.79061 522.34375 335.3125 C 520.92657 335.83439 519.46707 336.23801 517.96875 336.5625 C 514.97211 337.21147 511.8257 337.53531 508.625 337.6875 C 505.4243 337.83969 502.15035 337.82916 498.90625 337.875 C 495.66215 337.9208 492.43933 338.01382 489.3125 338.34375 C 488.13551 338.96101 486.86453 339.41398 485.53125 339.75 C 484.19797 340.08602 482.81936 340.28774 481.375 340.46875 C 478.48629 340.83078 475.40549 341.0319 472.34375 341.53125 C 461.26818 341.47605 450.29135 341.76239 439.34375 342.09375 C 428.39615 342.42511 417.4887 342.79355 406.59375 342.9375 C 401.16054 343.10147 395.58648 343.06906 390 343 C 384.41352 342.9309 378.79859 342.82316 373.25 342.84375 C 367.70141 342.86435 362.22579 343.0046 356.90625 343.4375 C 354.24648 343.65395 351.62917 343.96372 349.0625 344.34375 C 346.49583 344.72378 343.98092 345.1973 341.53125 345.78125 C 340.1214 345.83865 338.84128 346.01723 337.65625 346.3125 C 336.47122 346.60777 335.38191 347.0039 334.34375 347.5 C 332.26744 348.4922 330.39404 349.86424 328.4375 351.4375 C 324.15328 351.92784 320.00588 352.3836 316.03125 353.15625 C 314.04394 353.54258 312.09872 354.01171 310.21875 354.59375 C 308.33878 355.17579 306.50267 355.85757 304.75 356.71875 C 302.05915 357.52514 299.56273 358.51091 297.21875 359.6875 C 294.87477 360.86409 292.70037 362.25419 290.625 363.8125 C 288.00082 364.71321 285.15179 365.27563 282.1875 365.65625 C 279.22321 366.03687 276.12488 366.21866 273 366.375 C 269.87512 366.53134 266.73096 366.64712 263.625 366.875 C 260.51904 367.10288 257.47001 367.43601 254.5625 368.03125 C 251.41639 368.45351 248.18371 368.73936 244.90625 368.9375 C 241.62879 369.13564 238.30807 369.24397 235 369.375 C 231.69193 369.50603 228.39418 369.65408 225.15625 369.875 C 221.91832 370.09592 218.72331 370.40717 215.65625 370.875 C 212.14422 370.8102 208.73045 370.98005 205.34375 371.28125 C 201.95705 371.58245 198.60124 372.01564 195.25 372.40625 C 191.89876 372.79686 188.5619 373.14028 185.15625 373.34375 C 181.7506 373.54722 178.26868 373.60398 174.71875 373.34375 C 172.0576 373.64589 169.34416 373.71601 166.59375 373.71875 C 163.84334 373.72175 161.06096 373.6552 158.3125 373.625 C 155.56404 373.5947 152.84278 373.6094 150.1875 373.8125 C 147.53222 374.01559 144.93964 374.42215 142.46875 375.125 C 139.57945 375.78181 137.22031 376.30109 134.90625 376.9375 C 132.59219 377.57391 130.32869 378.30358 127.625 379.34375 C 127.37184 379.71547 126.8653 380.11338 126.46875 380.5 L 716.78125 379.5 L 716.78125 219.21875 L 716.78125 207.03125 z "
       id="path3804" />
    <path
       sodipodi:nodetypes="cc"
       id="path3795"
       d="M 585.48528,107.00968 555.69957,210.36683"
       style="fill:none;stroke:#6cc0f7;stroke-width:3;stroke-linecap:butt;stroke-linejoin:miter;stroke-miterlimit:4;stroke-opacity:1;stroke-dasharray:12, 3;stroke-dashoffset:0" />
    <path
       sodipodi:nodetypes="cc"
       id="path3797"
       d="m 570.37258,107.00968 -26.28571,88.35715"
       style="fill:none;stroke:#6cc0f7;stroke-width:3;stroke-linecap:butt;stroke-linejoin:miter;stroke-miterlimit:4;stroke-opacity:1;stroke-dasharray:12, 3;stroke-dashoffset:0" />
    <path
       style="fill:none;stroke:#6cc0f7;stroke-width:3;stroke-linecap:butt;stroke-linejoin:miter;stroke-miterlimit:4;stroke-opacity:1;stroke-dasharray:12, 3;stroke-dashoffset:0"
       d="m 600.42893,106.65613 -24.28571,87.35715"
       id="path3799"
       sodipodi:nodetypes="cc" />
    <path
       style="fill:#784421;stroke:none;stroke-width:1px;stroke-linecap:butt;stroke-linejoin:miter;stroke-opacity:1"
       d="m 330,348.5 c 9.89907,-9.88041 24.8043,-5.97244 37.26154,-6.97977 60.21155,-3.57981 121.95685,0.9122 180.38309,-16.96808 7.65137,-1.50289 19.51418,-8.30492 24.37241,-7.99012 -7.44922,7.80726 -18.22714,10.72925 -27.50091,15.63913 -24.87769,7.72148 -51.30905,5.59887 -76.79402,9.71315 -40.65545,3.77049 -81.7044,-0.94893 -122.25068,4.18075 C 340.45902,347.36554 335.25652,350.64864 330,348.5 z"
       id="path2928" />
    <path
       style="color:#000000;fill:#784421;fill-opacity:1;fill-rule:nonzero;stroke:none;stroke-width:1px;marker:none;visibility:visible;display:inline;overflow:visible;enable-background:accumulate"
       d="m 234.99014,367.01712 c 17.31622,-0.8269 34.60949,-2.30498 51.81647,-4.37627 7.68619,-1.86074 14.5234,-6.043 22.01319,-8.46904 1.14312,-2.31282 6.71987,-0.67598 2.73753,1.15014 -6.52986,3.91576 -13.98735,5.9249 -20.55215,9.78523 -5.24171,2.78737 -11.24067,3.26934 -17.06033,3.51488 -7.03542,0.17608 -14.0244,0.94382 -21.02866,1.5429 -7.5269,0.5896 -15.07161,1.07565 -22.62542,1.01393 -2.59505,-2.97861 2.68234,-4.04953 4.69937,-4.1618 z"
       id="path3761" />
    <path
       style="color:#000000;fill:#784421;fill-opacity:1;fill-rule:nonzero;stroke:none;stroke-width:1px;marker:none;visibility:visible;display:inline;overflow:visible;enable-background:accumulate"
       d="m 227.67579,358.70433 c -15.4362,1.40489 -30.87238,2.81003 -46.30858,4.21489 -4.214,-1.15034 -8.26443,1.49114 -12.48733,1.06558 -10.82272,2.91178 -22.04621,3.78341 -33.18667,4.54347 2.79291,2.43024 6.80651,-0.41444 10.13031,0.0475 4.89011,-0.25722 9.78792,0.37401 14.67514,-0.12306 18.93663,-0.83408 37.75254,-3.23413 56.57272,-5.37378 3.44703,-1.06982 8.04592,-0.20233 10.29269,-3.66027 l 0.16805,-0.34346 0.14367,-0.37091 z"
       id="path3800" />
    <path
       style="fill:#784421;stroke:none;stroke-width:1px;stroke-linecap:butt;stroke-linejoin:miter;stroke-opacity:1;color:#000000;fill-opacity:1;fill-rule:nonzero;marker:none;visibility:visible;display:inline;overflow:visible;enable-background:accumulate"
       d="m 441,320.5 c 7.08939,-0.37881 14.32613,-0.71185 21.05717,-3.18304 5.4751,-1.1527 11.43592,-1.11163 16.27945,-4.27034 4.86621,-2.58428 9.87338,-5.74437 15.59011,-5.61894 1.78158,0.68754 4.14952,-1.3294 5.55171,0.34113 -2.08059,1.97121 -5.08399,2.54338 -7.22113,4.4479 -5.45806,3.08567 -10.9822,6.95829 -17.50462,7.01196 -7.66555,0.66783 -12.40153,1.59419 -18.81888,1.77958 -2.82613,-0.15158 -9.16339,0.86613 -12.40444,0.31758 C 442.64508,321.6237 441.23459,321.68847 441,320.5 z"
       id="path3825"
       sodipodi:nodetypes="cccccccccc" />
    <path
       style="color:#000000;fill:#4848ff;fill-opacity:1;fill-rule:nonzero;stroke:none;stroke-width:1px;marker:none;visibility:visible;display:inline;overflow:visible;enable-background:accumulate"
       d="m 390.375,334 c 20.69437,-0.69438 41.38385,1.09054 62.07799,0.36846 2.77871,0.7276 6.89909,-1.00349 8.83389,1.05022 -1.68658,1.66649 -4.57756,0.56462 -6.68702,1.53863 -6.55237,1.23076 -13.2006,2.22167 -19.8867,1.88592 -14.36649,-0.0147 -28.72329,-0.83865 -43.05024,-1.77416 -1.25531,-0.20558 -3.52975,-2.37312 -1.28792,-3.06907 z"
       id="path3895" />
    <path
       style="fill:#4848ff;stroke:none;stroke-width:1px;stroke-linecap:butt;stroke-linejoin:miter;stroke-opacity:1;color:#000000;fill-opacity:1;fill-rule:nonzero;marker:none;visibility:visible;display:inline;overflow:visible;enable-background:accumulate"
       d="m 537.3125,288.65625 c -1.11111,0.35568 -2.12393,0.67424 -3.375,1.0625 -10.35714,3.21428 -15.0134,6.4375 -17.15625,6.4375 -0.30543,0 -0.91229,0.0425 -1.625,0.0937 0.26042,0.49892 0.77148,0.76764 1.3125,0.96875 2.07721,0.56779 3.30747,2.32292 4.71875,3.8437 0.65873,0.60825 1.60005,0.84033 2.34375,1.34375 0.7804,0.26559 0.92883,1.45156 1.84375,1.34375 0.71008,-0.32047 0.70112,-1.28087 1.3125,-1.75 0.75637,-0.85089 1.89102,-1.18427 2.75,-1.90625 1.10966,-0.75037 2.01359,-1.73502 2.875,-2.75 0.76129,-0.78435 1.26428,-1.7831 2.03125,-2.5625 0.88717,-0.82374 0.99478,-2.04414 1.25,-3.15625 0.0401,-0.0968 0.0458,-0.16827 0.0625,-0.25 0.5413,-0.76302 0.84279,-1.73941 1.46875,-2.4375 0.10816,-0.11172 0.15376,-0.20154 0.1875,-0.28125 l 0,10e-5 z"
       id="path3955"
       sodipodi:nodetypes="csscccccccccccscc" />
    <path
       style="fill:#784421;stroke:none;stroke-width:1px;stroke-linecap:butt;stroke-linejoin:miter;stroke-opacity:1;color:#000000;fill-opacity:1;fill-rule:nonzero;marker:none;visibility:visible;display:inline;overflow:visible;enable-background:accumulate"
       d="m 563.5,297.25 c 2.0461,-1.88397 3.83858,-4.4055 6.71164,-5.03463 3.14113,-2.93234 4.8124,-7.2928 8.47859,-9.65677 2.94041,-0.93269 5.77695,1.15815 8.7442,0.70561 3.32746,0.24904 6.9463,0.3 9.7936,-1.7161 4.04391,-2.10651 8.72216,-1.35121 13.02755,-0.73333 3.18582,0.57458 6.42135,0.65084 9.64082,0.39802 1.26598,-0.0302 5.28096,-0.17884 2.53006,1.2714 -2.77969,0.44515 -5.65532,-0.0975 -8.47735,0.26961 -4.60122,0.27227 -9.22464,0.19367 -13.81659,0.5393 -5.73104,0.74139 -11.49635,2.96891 -17.31272,1.60896 -2.88794,-0.62882 -5.75391,1.18547 -6.23996,4.08889 -1.59675,2.7172 -3.99002,4.94864 -6.64086,6.60853 -1.83014,0.78265 -5.11402,2.36056 -6.43898,1.65051 l 0,0 z"
       id="path4057" />
    <path
       style="fill:none;stroke:#6cc0f7;stroke-width:3;stroke-linecap:butt;stroke-linejoin:miter;stroke-miterlimit:4;stroke-opacity:1;stroke-dasharray:12, 3;stroke-dashoffset:0"
       d="m 378.74665,146.96122 -26.28571,88.35714"
       id="path2958"
       sodipodi:nodetypes="cc" />
    <path
       sodipodi:nodetypes="cc"
       id="path2960"
       d="m 393.24665,146.96122 -24.28571,87.35714"
       style="fill:none;stroke:#6cc0f7;stroke-width:3;stroke-linecap:butt;stroke-linejoin:miter;stroke-miterlimit:4;stroke-opacity:1;stroke-dasharray:12, 3;stroke-dashoffset:0" />
    <path
       sodipodi:nodetypes="cc"
       id="path2962"
       d="m 407.73803,146.96122 -26.28571,88.35714"
       style="fill:none;stroke:#6cc0f7;stroke-width:3;stroke-linecap:butt;stroke-linejoin:miter;stroke-miterlimit:4;stroke-opacity:1;stroke-dasharray:12, 3;stroke-dashoffset:0" />
  </g>
</svg>
